{"componentChunkName":"component---packages-blog-core-src-templates-collection-category-js","path":"/category/innovation/page/2/","result":{"data":{"collectionInfo":{"__typename":"CategoriesJson","id":"30eded32-f31a-5769-9680-9d0ca1b67155","name":"Innovation","slug":"/category/innovation/","description":"Lorem ipsum dolor sit amet, consectetur adipiscing elit, sed do eiusmod tempor incididunt ut labore."},"posts":{"nodes":[{"__typename":"MdxArticleProxy","id":"8d3b5bd6-919f-5922-a0af-6386b375f2ea","title":"Create an international team of innovation catalysts in 5 steps","slug":"/create-an-international-team-of-innovation-catalysts-in-5-steps/","link":null,"excerpt":"Primo in altis pelle alumnae Lorem markdownum obvius in seque opus, est bicorni forte; laeva…","timeToRead":1,"featured":true,"thumbnailText":null,"date":"April 02, 2020","category":{"__typename":"CategoriesJson","id":"30eded32-f31a-5769-9680-9d0ca1b67155","name":"Innovation","slug":"/category/innovation/","color":"#fefcbf","icon":"/static/35c6c4f7d744541f08be2bbd2770c8db/innovation.svg"},"author":{"__typename":"AuthorsJson","id":"98704738-2deb-500d-bfc5-8eeb2a88db4a","name":"John Doe","slug":"/author/john-doe/","title":"Web Developer","description":"Sed commodo, est quis maximus fermentum, massa ipsum euismod neque, in varius risus tellus quis lacus. Sed ac bibendum odio.","skills":["ASP.NET","Assembly","JavaScript"],"social":[{"name":"Instagram","url":"https://instagram.com/instagram"},{"name":"Twitter","url":"https://twitter.com/twitter"},{"name":"Website","url":"https://example.com"}],"thumbnail":{"__typename":"ImageSharp","regular":{"width":150,"height":150,"src":"/static/011b3215b6b7e782f02d67aebfa4c319/97df7/john-doe.png","srcSet":"/static/011b3215b6b7e782f02d67aebfa4c319/97df7/john-doe.png 1x,\n/static/011b3215b6b7e782f02d67aebfa4c319/81b80/john-doe.png 1.5x,\n/static/011b3215b6b7e782f02d67aebfa4c319/bb938/john-doe.png 2x","srcWebp":"/static/011b3215b6b7e782f02d67aebfa4c319/a3d54/john-doe.webp","srcSetWebp":"/static/011b3215b6b7e782f02d67aebfa4c319/a3d54/john-doe.webp 1x,\n/static/011b3215b6b7e782f02d67aebfa4c319/cc134/john-doe.webp 1.5x,\n/static/011b3215b6b7e782f02d67aebfa4c319/3cb0e/john-doe.webp 2x"}}},"thumbnail":{"__typename":"ImageSharp","vertical":{"src":"/static/a381cbe123484c239b97a005d5ce4a00/8f7be/image.jpg","srcSet":"/static/a381cbe123484c239b97a005d5ce4a00/8f7be/image.jpg 1x,\n/static/a381cbe123484c239b97a005d5ce4a00/1af80/image.jpg 1.5x,\n/static/a381cbe123484c239b97a005d5ce4a00/1acf6/image.jpg 2x","srcWebp":"/static/a381cbe123484c239b97a005d5ce4a00/03323/image.webp","srcSetWebp":"/static/a381cbe123484c239b97a005d5ce4a00/03323/image.webp 1x,\n/static/a381cbe123484c239b97a005d5ce4a00/c8e9c/image.webp 1.5x,\n/static/a381cbe123484c239b97a005d5ce4a00/e7f4c/image.webp 2x","width":380,"height":290},"hero":{"src":"/static/a381cbe123484c239b97a005d5ce4a00/a8483/image.jpg","srcSet":"/static/a381cbe123484c239b97a005d5ce4a00/a8483/image.jpg 1x","srcWebp":"/static/a381cbe123484c239b97a005d5ce4a00/7330c/image.webp","srcSetWebp":"/static/a381cbe123484c239b97a005d5ce4a00/7330c/image.webp 1x","width":1600,"height":650}}},{"__typename":"MdxArticleProxy","id":"88735e37-e981-5054-872e-d6f342694efe","title":"5 ingenious innovations triggered by chaos in startups","slug":"/5-ingenious-innovations-triggered-by-chaos-in-startups/","link":null,"excerpt":"Primo in altis pelle alumnae Lorem markdownum obvius in seque opus, est bicorni forte; laeva…","timeToRead":1,"featured":null,"thumbnailText":null,"date":"April 02, 2020","category":{"__typename":"CategoriesJson","id":"30eded32-f31a-5769-9680-9d0ca1b67155","name":"Innovation","slug":"/category/innovation/","color":"#fefcbf","icon":"/static/35c6c4f7d744541f08be2bbd2770c8db/innovation.svg"},"author":{"__typename":"AuthorsJson","id":"98704738-2deb-500d-bfc5-8eeb2a88db4a","name":"John Doe","slug":"/author/john-doe/","title":"Web Developer","description":"Sed commodo, est quis maximus fermentum, massa ipsum euismod neque, in varius risus tellus quis lacus. Sed ac bibendum odio.","skills":["ASP.NET","Assembly","JavaScript"],"social":[{"name":"Instagram","url":"https://instagram.com/instagram"},{"name":"Twitter","url":"https://twitter.com/twitter"},{"name":"Website","url":"https://example.com"}],"thumbnail":{"__typename":"ImageSharp","regular":{"width":150,"height":150,"src":"/static/011b3215b6b7e782f02d67aebfa4c319/97df7/john-doe.png","srcSet":"/static/011b3215b6b7e782f02d67aebfa4c319/97df7/john-doe.png 1x,\n/static/011b3215b6b7e782f02d67aebfa4c319/81b80/john-doe.png 1.5x,\n/static/011b3215b6b7e782f02d67aebfa4c319/bb938/john-doe.png 2x","srcWebp":"/static/011b3215b6b7e782f02d67aebfa4c319/a3d54/john-doe.webp","srcSetWebp":"/static/011b3215b6b7e782f02d67aebfa4c319/a3d54/john-doe.webp 1x,\n/static/011b3215b6b7e782f02d67aebfa4c319/cc134/john-doe.webp 1.5x,\n/static/011b3215b6b7e782f02d67aebfa4c319/3cb0e/john-doe.webp 2x"}}},"thumbnail":{"__typename":"ImageSharp","vertical":{"src":"/static/a381cbe123484c239b97a005d5ce4a00/8f7be/image.jpg","srcSet":"/static/a381cbe123484c239b97a005d5ce4a00/8f7be/image.jpg 1x,\n/static/a381cbe123484c239b97a005d5ce4a00/1af80/image.jpg 1.5x,\n/static/a381cbe123484c239b97a005d5ce4a00/1acf6/image.jpg 2x","srcWebp":"/static/a381cbe123484c239b97a005d5ce4a00/03323/image.webp","srcSetWebp":"/static/a381cbe123484c239b97a005d5ce4a00/03323/image.webp 1x,\n/static/a381cbe123484c239b97a005d5ce4a00/c8e9c/image.webp 1.5x,\n/static/a381cbe123484c239b97a005d5ce4a00/e7f4c/image.webp 2x","width":380,"height":290},"hero":{"src":"/static/a381cbe123484c239b97a005d5ce4a00/a8483/image.jpg","srcSet":"/static/a381cbe123484c239b97a005d5ce4a00/a8483/image.jpg 1x","srcWebp":"/static/a381cbe123484c239b97a005d5ce4a00/7330c/image.webp","srcSetWebp":"/static/a381cbe123484c239b97a005d5ce4a00/7330c/image.webp 1x","width":1600,"height":650}}},{"__typename":"MdxArticleProxy","id":"ba20cacc-7d1e-5298-8685-cfadc95a3a23","title":"Can a designer sustainably transform the world?","slug":"/can-a-designer-sustainably-transform-the-world/","link":null,"excerpt":"Primo in altis pelle alumnae Lorem markdownum obvius in seque opus, est bicorni forte; laeva…","timeToRead":1,"featured":null,"thumbnailText":null,"date":"April 02, 2020","category":{"__typename":"CategoriesJson","id":"30eded32-f31a-5769-9680-9d0ca1b67155","name":"Innovation","slug":"/category/innovation/","color":"#fefcbf","icon":"/static/35c6c4f7d744541f08be2bbd2770c8db/innovation.svg"},"author":{"__typename":"AuthorsJson","id":"98704738-2deb-500d-bfc5-8eeb2a88db4a","name":"John Doe","slug":"/author/john-doe/","title":"Web Developer","description":"Sed commodo, est quis maximus fermentum, massa ipsum euismod neque, in varius risus tellus quis lacus. Sed ac bibendum odio.","skills":["ASP.NET","Assembly","JavaScript"],"social":[{"name":"Instagram","url":"https://instagram.com/instagram"},{"name":"Twitter","url":"https://twitter.com/twitter"},{"name":"Website","url":"https://example.com"}],"thumbnail":{"__typename":"ImageSharp","regular":{"width":150,"height":150,"src":"/static/011b3215b6b7e782f02d67aebfa4c319/97df7/john-doe.png","srcSet":"/static/011b3215b6b7e782f02d67aebfa4c319/97df7/john-doe.png 1x,\n/static/011b3215b6b7e782f02d67aebfa4c319/81b80/john-doe.png 1.5x,\n/static/011b3215b6b7e782f02d67aebfa4c319/bb938/john-doe.png 2x","srcWebp":"/static/011b3215b6b7e782f02d67aebfa4c319/a3d54/john-doe.webp","srcSetWebp":"/static/011b3215b6b7e782f02d67aebfa4c319/a3d54/john-doe.webp 1x,\n/static/011b3215b6b7e782f02d67aebfa4c319/cc134/john-doe.webp 1.5x,\n/static/011b3215b6b7e782f02d67aebfa4c319/3cb0e/john-doe.webp 2x"}}},"thumbnail":{"__typename":"ImageSharp","vertical":{"src":"/static/a381cbe123484c239b97a005d5ce4a00/8f7be/image.jpg","srcSet":"/static/a381cbe123484c239b97a005d5ce4a00/8f7be/image.jpg 1x,\n/static/a381cbe123484c239b97a005d5ce4a00/1af80/image.jpg 1.5x,\n/static/a381cbe123484c239b97a005d5ce4a00/1acf6/image.jpg 2x","srcWebp":"/static/a381cbe123484c239b97a005d5ce4a00/03323/image.webp","srcSetWebp":"/static/a381cbe123484c239b97a005d5ce4a00/03323/image.webp 1x,\n/static/a381cbe123484c239b97a005d5ce4a00/c8e9c/image.webp 1.5x,\n/static/a381cbe123484c239b97a005d5ce4a00/e7f4c/image.webp 2x","width":380,"height":290},"hero":{"src":"/static/a381cbe123484c239b97a005d5ce4a00/a8483/image.jpg","srcSet":"/static/a381cbe123484c239b97a005d5ce4a00/a8483/image.jpg 1x","srcWebp":"/static/a381cbe123484c239b97a005d5ce4a00/7330c/image.webp","srcSetWebp":"/static/a381cbe123484c239b97a005d5ce4a00/7330c/image.webp 1x","width":1600,"height":650}}}],"pageInfo":{"pageCount":2,"hasPreviousPage":true,"hasNextPage":false,"currentPage":2},"totalCount":9}},"pageContext":{"slug":"/category/innovation/","limit":6,"skip":6,"collectionType":"category","paginatePostsPage":false,"basePath":"/","services":{"algolia":false,"mailchimp":false,"disqus":false},"siteUrl":null,"mobileMenu":{"title":"Topics","items":[{"name":"Advertising","slug":"/category/advertising/"},{"name":"Case Studies","slug":"/category/case-studies/"},{"name":"Innovation","slug":"/category/innovation/"},{"name":"Management","slug":"/category/management/"}]},"darkMode":true}},"staticQueryHashes":["1992822086","92822325"]}