{"componentChunkName":"component---packages-blog-core-src-templates-collection-author-js","path":"/author/john-doe/page/3/","result":{"data":{"collectionInfo":{"__typename":"AuthorsJson","id":"98704738-2deb-500d-bfc5-8eeb2a88db4a","name":"John Doe","slug":"/author/john-doe/","title":"Web Developer","description":"Sed commodo, est quis maximus fermentum, massa ipsum euismod neque, in varius risus tellus quis lacus. Sed ac bibendum odio.","skills":["ASP.NET","Assembly","JavaScript"],"social":[{"name":"Instagram","url":"https://instagram.com/instagram"},{"name":"Twitter","url":"https://twitter.com/twitter"},{"name":"Website","url":"https://example.com"}],"thumbnail":{"__typename":"ImageSharp","regular":{"width":150,"height":150,"src":"/static/011b3215b6b7e782f02d67aebfa4c319/97df7/john-doe.png","srcSet":"/static/011b3215b6b7e782f02d67aebfa4c319/97df7/john-doe.png 1x,\n/static/011b3215b6b7e782f02d67aebfa4c319/81b80/john-doe.png 1.5x,\n/static/011b3215b6b7e782f02d67aebfa4c319/bb938/john-doe.png 2x","srcWebp":"/static/011b3215b6b7e782f02d67aebfa4c319/a3d54/john-doe.webp","srcSetWebp":"/static/011b3215b6b7e782f02d67aebfa4c319/a3d54/john-doe.webp 1x,\n/static/011b3215b6b7e782f02d67aebfa4c319/cc134/john-doe.webp 1.5x,\n/static/011b3215b6b7e782f02d67aebfa4c319/3cb0e/john-doe.webp 2x"}}},"posts":{"nodes":[{"__typename":"MdxArticleProxy","id":"bb8988f3-2d94-5d9b-83a3-dbb43685b87f","title":"Effective Leadership in the Digital Age","slug":"/effective-leadership-in-the-digital-age/","link":null,"excerpt":"Primo in altis pelle alumnae Lorem markdownum obvius in seque opus, est bicorni forte; laeva…","timeToRead":1,"featured":true,"thumbnailText":null,"date":"April 16, 2019","category":{"__typename":"CategoriesJson","id":"8ae47a39-a905-55fc-8510-03f329960648","name":"Management","slug":"/category/management/","color":"#bee3f8","icon":"/static/f41361d1715191a688f7243a90b28bc7/management.svg"},"author":{"__typename":"AuthorsJson","id":"98704738-2deb-500d-bfc5-8eeb2a88db4a","name":"John Doe","slug":"/author/john-doe/","title":"Web Developer","description":"Sed commodo, est quis maximus fermentum, massa ipsum euismod neque, in varius risus tellus quis lacus. Sed ac bibendum odio.","skills":["ASP.NET","Assembly","JavaScript"],"social":[{"name":"Instagram","url":"https://instagram.com/instagram"},{"name":"Twitter","url":"https://twitter.com/twitter"},{"name":"Website","url":"https://example.com"}],"thumbnail":{"__typename":"ImageSharp","regular":{"width":150,"height":150,"src":"/static/011b3215b6b7e782f02d67aebfa4c319/97df7/john-doe.png","srcSet":"/static/011b3215b6b7e782f02d67aebfa4c319/97df7/john-doe.png 1x,\n/static/011b3215b6b7e782f02d67aebfa4c319/81b80/john-doe.png 1.5x,\n/static/011b3215b6b7e782f02d67aebfa4c319/bb938/john-doe.png 2x","srcWebp":"/static/011b3215b6b7e782f02d67aebfa4c319/a3d54/john-doe.webp","srcSetWebp":"/static/011b3215b6b7e782f02d67aebfa4c319/a3d54/john-doe.webp 1x,\n/static/011b3215b6b7e782f02d67aebfa4c319/cc134/john-doe.webp 1.5x,\n/static/011b3215b6b7e782f02d67aebfa4c319/3cb0e/john-doe.webp 2x"}}},"thumbnail":{"__typename":"ImageSharp","vertical":{"src":"/static/a381cbe123484c239b97a005d5ce4a00/8f7be/image.jpg","srcSet":"/static/a381cbe123484c239b97a005d5ce4a00/8f7be/image.jpg 1x,\n/static/a381cbe123484c239b97a005d5ce4a00/1af80/image.jpg 1.5x,\n/static/a381cbe123484c239b97a005d5ce4a00/1acf6/image.jpg 2x","srcWebp":"/static/a381cbe123484c239b97a005d5ce4a00/03323/image.webp","srcSetWebp":"/static/a381cbe123484c239b97a005d5ce4a00/03323/image.webp 1x,\n/static/a381cbe123484c239b97a005d5ce4a00/c8e9c/image.webp 1.5x,\n/static/a381cbe123484c239b97a005d5ce4a00/e7f4c/image.webp 2x","width":380,"height":290},"hero":{"src":"/static/a381cbe123484c239b97a005d5ce4a00/a8483/image.jpg","srcSet":"/static/a381cbe123484c239b97a005d5ce4a00/a8483/image.jpg 1x","srcWebp":"/static/a381cbe123484c239b97a005d5ce4a00/7330c/image.webp","srcSetWebp":"/static/a381cbe123484c239b97a005d5ce4a00/7330c/image.webp 1x","width":1600,"height":650}}},{"__typename":"MdxArticleProxy","id":"e18b534b-03b4-5dc7-a0ee-089d891d823c","title":"Trigger emails boost digital revenue by 9.1% for furniture retailer","slug":"/trigger-emails-boost-digital-revenue-by-91percent-for-furniture-retailer/","link":null,"excerpt":"Lorem markdownum transitque nondum, Peliaeque at poterat exegit, urbis quo;\ntibi. Cursus mecum adit…","timeToRead":1,"featured":null,"thumbnailText":null,"date":"April 16, 2019","category":{"__typename":"CategoriesJson","id":"767010c7-c59a-5e5a-bfbb-0fd8f19152a7","name":"Case Studies","slug":"/category/case-studies/","color":"#c6f6d5","icon":"/static/1de85bbd781531b61bf5a25b83d72d32/case-studies.svg"},"author":{"__typename":"AuthorsJson","id":"98704738-2deb-500d-bfc5-8eeb2a88db4a","name":"John Doe","slug":"/author/john-doe/","title":"Web Developer","description":"Sed commodo, est quis maximus fermentum, massa ipsum euismod neque, in varius risus tellus quis lacus. Sed ac bibendum odio.","skills":["ASP.NET","Assembly","JavaScript"],"social":[{"name":"Instagram","url":"https://instagram.com/instagram"},{"name":"Twitter","url":"https://twitter.com/twitter"},{"name":"Website","url":"https://example.com"}],"thumbnail":{"__typename":"ImageSharp","regular":{"width":150,"height":150,"src":"/static/011b3215b6b7e782f02d67aebfa4c319/97df7/john-doe.png","srcSet":"/static/011b3215b6b7e782f02d67aebfa4c319/97df7/john-doe.png 1x,\n/static/011b3215b6b7e782f02d67aebfa4c319/81b80/john-doe.png 1.5x,\n/static/011b3215b6b7e782f02d67aebfa4c319/bb938/john-doe.png 2x","srcWebp":"/static/011b3215b6b7e782f02d67aebfa4c319/a3d54/john-doe.webp","srcSetWebp":"/static/011b3215b6b7e782f02d67aebfa4c319/a3d54/john-doe.webp 1x,\n/static/011b3215b6b7e782f02d67aebfa4c319/cc134/john-doe.webp 1.5x,\n/static/011b3215b6b7e782f02d67aebfa4c319/3cb0e/john-doe.webp 2x"}}},"thumbnail":{"__typename":"ImageSharp","vertical":{"src":"/static/a381cbe123484c239b97a005d5ce4a00/8f7be/image.jpg","srcSet":"/static/a381cbe123484c239b97a005d5ce4a00/8f7be/image.jpg 1x,\n/static/a381cbe123484c239b97a005d5ce4a00/1af80/image.jpg 1.5x,\n/static/a381cbe123484c239b97a005d5ce4a00/1acf6/image.jpg 2x","srcWebp":"/static/a381cbe123484c239b97a005d5ce4a00/03323/image.webp","srcSetWebp":"/static/a381cbe123484c239b97a005d5ce4a00/03323/image.webp 1x,\n/static/a381cbe123484c239b97a005d5ce4a00/c8e9c/image.webp 1.5x,\n/static/a381cbe123484c239b97a005d5ce4a00/e7f4c/image.webp 2x","width":380,"height":290},"hero":{"src":"/static/a381cbe123484c239b97a005d5ce4a00/a8483/image.jpg","srcSet":"/static/a381cbe123484c239b97a005d5ce4a00/a8483/image.jpg 1x","srcWebp":"/static/a381cbe123484c239b97a005d5ce4a00/7330c/image.webp","srcSetWebp":"/static/a381cbe123484c239b97a005d5ce4a00/7330c/image.webp 1x","width":1600,"height":650}}},{"__typename":"MdxArticleProxy","id":"e691af5f-9f76-5bee-9a7d-138059866a15","title":"Supermarket Chain’s Site Redesign Boosts Online Sales And Market Share","slug":"/supermarket-chains-site-redesign-boosts-online-sales-and-market-share/","link":null,"excerpt":"Dona curvo sub evertere quam ultimus aridus Lorem markdownum , sub tecumque, posceret revertar…","timeToRead":1,"featured":null,"thumbnailText":null,"date":"April 16, 2019","category":{"__typename":"CategoriesJson","id":"767010c7-c59a-5e5a-bfbb-0fd8f19152a7","name":"Case Studies","slug":"/category/case-studies/","color":"#c6f6d5","icon":"/static/1de85bbd781531b61bf5a25b83d72d32/case-studies.svg"},"author":{"__typename":"AuthorsJson","id":"98704738-2deb-500d-bfc5-8eeb2a88db4a","name":"John Doe","slug":"/author/john-doe/","title":"Web Developer","description":"Sed commodo, est quis maximus fermentum, massa ipsum euismod neque, in varius risus tellus quis lacus. Sed ac bibendum odio.","skills":["ASP.NET","Assembly","JavaScript"],"social":[{"name":"Instagram","url":"https://instagram.com/instagram"},{"name":"Twitter","url":"https://twitter.com/twitter"},{"name":"Website","url":"https://example.com"}],"thumbnail":{"__typename":"ImageSharp","regular":{"width":150,"height":150,"src":"/static/011b3215b6b7e782f02d67aebfa4c319/97df7/john-doe.png","srcSet":"/static/011b3215b6b7e782f02d67aebfa4c319/97df7/john-doe.png 1x,\n/static/011b3215b6b7e782f02d67aebfa4c319/81b80/john-doe.png 1.5x,\n/static/011b3215b6b7e782f02d67aebfa4c319/bb938/john-doe.png 2x","srcWebp":"/static/011b3215b6b7e782f02d67aebfa4c319/a3d54/john-doe.webp","srcSetWebp":"/static/011b3215b6b7e782f02d67aebfa4c319/a3d54/john-doe.webp 1x,\n/static/011b3215b6b7e782f02d67aebfa4c319/cc134/john-doe.webp 1.5x,\n/static/011b3215b6b7e782f02d67aebfa4c319/3cb0e/john-doe.webp 2x"}}},"thumbnail":{"__typename":"ImageSharp","vertical":{"src":"/static/a381cbe123484c239b97a005d5ce4a00/8f7be/image.jpg","srcSet":"/static/a381cbe123484c239b97a005d5ce4a00/8f7be/image.jpg 1x,\n/static/a381cbe123484c239b97a005d5ce4a00/1af80/image.jpg 1.5x,\n/static/a381cbe123484c239b97a005d5ce4a00/1acf6/image.jpg 2x","srcWebp":"/static/a381cbe123484c239b97a005d5ce4a00/03323/image.webp","srcSetWebp":"/static/a381cbe123484c239b97a005d5ce4a00/03323/image.webp 1x,\n/static/a381cbe123484c239b97a005d5ce4a00/c8e9c/image.webp 1.5x,\n/static/a381cbe123484c239b97a005d5ce4a00/e7f4c/image.webp 2x","width":380,"height":290},"hero":{"src":"/static/a381cbe123484c239b97a005d5ce4a00/a8483/image.jpg","srcSet":"/static/a381cbe123484c239b97a005d5ce4a00/a8483/image.jpg 1x","srcWebp":"/static/a381cbe123484c239b97a005d5ce4a00/7330c/image.webp","srcSetWebp":"/static/a381cbe123484c239b97a005d5ce4a00/7330c/image.webp 1x","width":1600,"height":650}}},{"__typename":"MdxArticleProxy","id":"765cab09-1ab8-507a-abbd-5972b672eb4c","title":"Consultancy Saves 30% Time on Managing Daily Work","slug":"/consultancy-saves-30percent-time-on-managing-daily-work/","link":null,"excerpt":"Dona curvo sub evertere quam ultimus aridus Lorem markdownum , sub tecumque, posceret revertar…","timeToRead":1,"featured":null,"thumbnailText":null,"date":"April 16, 2019","category":{"__typename":"CategoriesJson","id":"767010c7-c59a-5e5a-bfbb-0fd8f19152a7","name":"Case Studies","slug":"/category/case-studies/","color":"#c6f6d5","icon":"/static/1de85bbd781531b61bf5a25b83d72d32/case-studies.svg"},"author":{"__typename":"AuthorsJson","id":"98704738-2deb-500d-bfc5-8eeb2a88db4a","name":"John Doe","slug":"/author/john-doe/","title":"Web Developer","description":"Sed commodo, est quis maximus fermentum, massa ipsum euismod neque, in varius risus tellus quis lacus. Sed ac bibendum odio.","skills":["ASP.NET","Assembly","JavaScript"],"social":[{"name":"Instagram","url":"https://instagram.com/instagram"},{"name":"Twitter","url":"https://twitter.com/twitter"},{"name":"Website","url":"https://example.com"}],"thumbnail":{"__typename":"ImageSharp","regular":{"width":150,"height":150,"src":"/static/011b3215b6b7e782f02d67aebfa4c319/97df7/john-doe.png","srcSet":"/static/011b3215b6b7e782f02d67aebfa4c319/97df7/john-doe.png 1x,\n/static/011b3215b6b7e782f02d67aebfa4c319/81b80/john-doe.png 1.5x,\n/static/011b3215b6b7e782f02d67aebfa4c319/bb938/john-doe.png 2x","srcWebp":"/static/011b3215b6b7e782f02d67aebfa4c319/a3d54/john-doe.webp","srcSetWebp":"/static/011b3215b6b7e782f02d67aebfa4c319/a3d54/john-doe.webp 1x,\n/static/011b3215b6b7e782f02d67aebfa4c319/cc134/john-doe.webp 1.5x,\n/static/011b3215b6b7e782f02d67aebfa4c319/3cb0e/john-doe.webp 2x"}}},"thumbnail":{"__typename":"ImageSharp","vertical":{"src":"/static/a381cbe123484c239b97a005d5ce4a00/8f7be/image.jpg","srcSet":"/static/a381cbe123484c239b97a005d5ce4a00/8f7be/image.jpg 1x,\n/static/a381cbe123484c239b97a005d5ce4a00/1af80/image.jpg 1.5x,\n/static/a381cbe123484c239b97a005d5ce4a00/1acf6/image.jpg 2x","srcWebp":"/static/a381cbe123484c239b97a005d5ce4a00/03323/image.webp","srcSetWebp":"/static/a381cbe123484c239b97a005d5ce4a00/03323/image.webp 1x,\n/static/a381cbe123484c239b97a005d5ce4a00/c8e9c/image.webp 1.5x,\n/static/a381cbe123484c239b97a005d5ce4a00/e7f4c/image.webp 2x","width":380,"height":290},"hero":{"src":"/static/a381cbe123484c239b97a005d5ce4a00/a8483/image.jpg","srcSet":"/static/a381cbe123484c239b97a005d5ce4a00/a8483/image.jpg 1x","srcWebp":"/static/a381cbe123484c239b97a005d5ce4a00/7330c/image.webp","srcSetWebp":"/static/a381cbe123484c239b97a005d5ce4a00/7330c/image.webp 1x","width":1600,"height":650}}},{"__typename":"MdxArticleProxy","id":"d55d1029-3855-5679-a4df-1a2f093fe40f","title":"Charity engages 1m more supporters with revamped digital presence","slug":"/charity-engages-1m-more-supporters-with-revamped-digital-presence/","link":null,"excerpt":"Dona curvo sub evertere quam ultimus aridus Lorem markdownum , sub tecumque, posceret revertar…","timeToRead":1,"featured":null,"thumbnailText":null,"date":"April 16, 2019","category":{"__typename":"CategoriesJson","id":"767010c7-c59a-5e5a-bfbb-0fd8f19152a7","name":"Case Studies","slug":"/category/case-studies/","color":"#c6f6d5","icon":"/static/1de85bbd781531b61bf5a25b83d72d32/case-studies.svg"},"author":{"__typename":"AuthorsJson","id":"98704738-2deb-500d-bfc5-8eeb2a88db4a","name":"John Doe","slug":"/author/john-doe/","title":"Web Developer","description":"Sed commodo, est quis maximus fermentum, massa ipsum euismod neque, in varius risus tellus quis lacus. Sed ac bibendum odio.","skills":["ASP.NET","Assembly","JavaScript"],"social":[{"name":"Instagram","url":"https://instagram.com/instagram"},{"name":"Twitter","url":"https://twitter.com/twitter"},{"name":"Website","url":"https://example.com"}],"thumbnail":{"__typename":"ImageSharp","regular":{"width":150,"height":150,"src":"/static/011b3215b6b7e782f02d67aebfa4c319/97df7/john-doe.png","srcSet":"/static/011b3215b6b7e782f02d67aebfa4c319/97df7/john-doe.png 1x,\n/static/011b3215b6b7e782f02d67aebfa4c319/81b80/john-doe.png 1.5x,\n/static/011b3215b6b7e782f02d67aebfa4c319/bb938/john-doe.png 2x","srcWebp":"/static/011b3215b6b7e782f02d67aebfa4c319/a3d54/john-doe.webp","srcSetWebp":"/static/011b3215b6b7e782f02d67aebfa4c319/a3d54/john-doe.webp 1x,\n/static/011b3215b6b7e782f02d67aebfa4c319/cc134/john-doe.webp 1.5x,\n/static/011b3215b6b7e782f02d67aebfa4c319/3cb0e/john-doe.webp 2x"}}},"thumbnail":{"__typename":"ImageSharp","vertical":{"src":"/static/a381cbe123484c239b97a005d5ce4a00/8f7be/image.jpg","srcSet":"/static/a381cbe123484c239b97a005d5ce4a00/8f7be/image.jpg 1x,\n/static/a381cbe123484c239b97a005d5ce4a00/1af80/image.jpg 1.5x,\n/static/a381cbe123484c239b97a005d5ce4a00/1acf6/image.jpg 2x","srcWebp":"/static/a381cbe123484c239b97a005d5ce4a00/03323/image.webp","srcSetWebp":"/static/a381cbe123484c239b97a005d5ce4a00/03323/image.webp 1x,\n/static/a381cbe123484c239b97a005d5ce4a00/c8e9c/image.webp 1.5x,\n/static/a381cbe123484c239b97a005d5ce4a00/e7f4c/image.webp 2x","width":380,"height":290},"hero":{"src":"/static/a381cbe123484c239b97a005d5ce4a00/a8483/image.jpg","srcSet":"/static/a381cbe123484c239b97a005d5ce4a00/a8483/image.jpg 1x","srcWebp":"/static/a381cbe123484c239b97a005d5ce4a00/7330c/image.webp","srcSetWebp":"/static/a381cbe123484c239b97a005d5ce4a00/7330c/image.webp 1x","width":1600,"height":650}}},{"__typename":"MdxArticleProxy","id":"8dff29c5-122c-5c7a-8746-59e93b43d5bf","title":"SEO and content campaign delivers 2,190% ROI","slug":"/seo-and-content-campaign-delivers-2190percent-roi/","link":null,"excerpt":"Dona curvo sub evertere quam ultimus aridus Lorem markdownum , sub tecumque, posceret revertar…","timeToRead":1,"featured":null,"thumbnailText":null,"date":"April 16, 2019","category":{"__typename":"CategoriesJson","id":"767010c7-c59a-5e5a-bfbb-0fd8f19152a7","name":"Case Studies","slug":"/category/case-studies/","color":"#c6f6d5","icon":"/static/1de85bbd781531b61bf5a25b83d72d32/case-studies.svg"},"author":{"__typename":"AuthorsJson","id":"98704738-2deb-500d-bfc5-8eeb2a88db4a","name":"John Doe","slug":"/author/john-doe/","title":"Web Developer","description":"Sed commodo, est quis maximus fermentum, massa ipsum euismod neque, in varius risus tellus quis lacus. Sed ac bibendum odio.","skills":["ASP.NET","Assembly","JavaScript"],"social":[{"name":"Instagram","url":"https://instagram.com/instagram"},{"name":"Twitter","url":"https://twitter.com/twitter"},{"name":"Website","url":"https://example.com"}],"thumbnail":{"__typename":"ImageSharp","regular":{"width":150,"height":150,"src":"/static/011b3215b6b7e782f02d67aebfa4c319/97df7/john-doe.png","srcSet":"/static/011b3215b6b7e782f02d67aebfa4c319/97df7/john-doe.png 1x,\n/static/011b3215b6b7e782f02d67aebfa4c319/81b80/john-doe.png 1.5x,\n/static/011b3215b6b7e782f02d67aebfa4c319/bb938/john-doe.png 2x","srcWebp":"/static/011b3215b6b7e782f02d67aebfa4c319/a3d54/john-doe.webp","srcSetWebp":"/static/011b3215b6b7e782f02d67aebfa4c319/a3d54/john-doe.webp 1x,\n/static/011b3215b6b7e782f02d67aebfa4c319/cc134/john-doe.webp 1.5x,\n/static/011b3215b6b7e782f02d67aebfa4c319/3cb0e/john-doe.webp 2x"}}},"thumbnail":{"__typename":"ImageSharp","vertical":{"src":"/static/a381cbe123484c239b97a005d5ce4a00/8f7be/image.jpg","srcSet":"/static/a381cbe123484c239b97a005d5ce4a00/8f7be/image.jpg 1x,\n/static/a381cbe123484c239b97a005d5ce4a00/1af80/image.jpg 1.5x,\n/static/a381cbe123484c239b97a005d5ce4a00/1acf6/image.jpg 2x","srcWebp":"/static/a381cbe123484c239b97a005d5ce4a00/03323/image.webp","srcSetWebp":"/static/a381cbe123484c239b97a005d5ce4a00/03323/image.webp 1x,\n/static/a381cbe123484c239b97a005d5ce4a00/c8e9c/image.webp 1.5x,\n/static/a381cbe123484c239b97a005d5ce4a00/e7f4c/image.webp 2x","width":380,"height":290},"hero":{"src":"/static/a381cbe123484c239b97a005d5ce4a00/a8483/image.jpg","srcSet":"/static/a381cbe123484c239b97a005d5ce4a00/a8483/image.jpg 1x","srcWebp":"/static/a381cbe123484c239b97a005d5ce4a00/7330c/image.webp","srcSetWebp":"/static/a381cbe123484c239b97a005d5ce4a00/7330c/image.webp 1x","width":1600,"height":650}}}],"pageInfo":{"pageCount":4,"hasPreviousPage":true,"hasNextPage":true,"currentPage":3},"totalCount":23}},"pageContext":{"slug":"/author/john-doe/","limit":6,"skip":12,"collectionType":"author","paginatePostsPage":false,"basePath":"/","services":{"algolia":false,"mailchimp":false,"disqus":false},"siteUrl":null,"mobileMenu":{"title":"Topics","items":[{"name":"Advertising","slug":"/category/advertising/"},{"name":"Case Studies","slug":"/category/case-studies/"},{"name":"Innovation","slug":"/category/innovation/"},{"name":"Management","slug":"/category/management/"}]},"darkMode":true}},"staticQueryHashes":["1992822086","92822325"]}