{"data":{"collectionInfo":{"__typename":"AuthorsJson","id":"21f6290e-6a28-594d-87f8-5423803bbb6e","name":"Steve Grant","slug":"/author/steve-grant/","title":"Product Designer","description":"Sed commodo, est quis maximus fermentum, massa ipsum euismod neque, in varius risus tellus quis lacus. Sed ac bibendum odio.","skills":["Public Relation","Market Analyst","Designer"],"social":[{"name":"Instagram","url":"https://instagram.com/instagram"},{"name":"Twitter","url":"https://twitter.com/twitter"},{"name":"Website","url":"https://example.com"}],"thumbnail":{"__typename":"ImageSharp","regular":{"width":150,"height":150,"src":"/static/05d0ac7130e48a9a86ba018fac3dbe2d/97df7/steve-grant.png","srcSet":"/static/05d0ac7130e48a9a86ba018fac3dbe2d/97df7/steve-grant.png 1x,\n/static/05d0ac7130e48a9a86ba018fac3dbe2d/81b80/steve-grant.png 1.5x,\n/static/05d0ac7130e48a9a86ba018fac3dbe2d/bb938/steve-grant.png 2x","srcWebp":"/static/05d0ac7130e48a9a86ba018fac3dbe2d/a3d54/steve-grant.webp","srcSetWebp":"/static/05d0ac7130e48a9a86ba018fac3dbe2d/a3d54/steve-grant.webp 1x,\n/static/05d0ac7130e48a9a86ba018fac3dbe2d/cc134/steve-grant.webp 1.5x,\n/static/05d0ac7130e48a9a86ba018fac3dbe2d/3cb0e/steve-grant.webp 2x"}}},"posts":{"nodes":[{"__typename":"MdxArticleProxy","id":"09bb82db-a1a6-5aee-bd1a-450dcc5baa2a","title":"People use the word skill to describe different things","slug":"/people-use-the-word-skill-to-describe-different-things/","link":null,"excerpt":"Lorem markdownum illic venturi instructa nobis Echidnae,  cum  quid magna\nfatebor. Levat placetque…","timeToRead":1,"featured":null,"thumbnailText":null,"date":"April 16, 2019","category":{"__typename":"CategoriesJson","id":"8ae47a39-a905-55fc-8510-03f329960648","name":"Management","slug":"/category/management/","color":"#bee3f8","icon":"/static/f41361d1715191a688f7243a90b28bc7/management.svg"},"author":{"__typename":"AuthorsJson","id":"21f6290e-6a28-594d-87f8-5423803bbb6e","name":"Steve Grant","slug":"/author/steve-grant/","title":"Product Designer","description":"Sed commodo, est quis maximus fermentum, massa ipsum euismod neque, in varius risus tellus quis lacus. Sed ac bibendum odio.","skills":["Public Relation","Market Analyst","Designer"],"social":[{"name":"Instagram","url":"https://instagram.com/instagram"},{"name":"Twitter","url":"https://twitter.com/twitter"},{"name":"Website","url":"https://example.com"}],"thumbnail":{"__typename":"ImageSharp","regular":{"width":150,"height":150,"src":"/static/05d0ac7130e48a9a86ba018fac3dbe2d/97df7/steve-grant.png","srcSet":"/static/05d0ac7130e48a9a86ba018fac3dbe2d/97df7/steve-grant.png 1x,\n/static/05d0ac7130e48a9a86ba018fac3dbe2d/81b80/steve-grant.png 1.5x,\n/static/05d0ac7130e48a9a86ba018fac3dbe2d/bb938/steve-grant.png 2x","srcWebp":"/static/05d0ac7130e48a9a86ba018fac3dbe2d/a3d54/steve-grant.webp","srcSetWebp":"/static/05d0ac7130e48a9a86ba018fac3dbe2d/a3d54/steve-grant.webp 1x,\n/static/05d0ac7130e48a9a86ba018fac3dbe2d/cc134/steve-grant.webp 1.5x,\n/static/05d0ac7130e48a9a86ba018fac3dbe2d/3cb0e/steve-grant.webp 2x"}}},"thumbnail":{"__typename":"ImageSharp","vertical":{"src":"/static/a381cbe123484c239b97a005d5ce4a00/8f7be/image.jpg","srcSet":"/static/a381cbe123484c239b97a005d5ce4a00/8f7be/image.jpg 1x,\n/static/a381cbe123484c239b97a005d5ce4a00/1af80/image.jpg 1.5x,\n/static/a381cbe123484c239b97a005d5ce4a00/1acf6/image.jpg 2x","srcWebp":"/static/a381cbe123484c239b97a005d5ce4a00/03323/image.webp","srcSetWebp":"/static/a381cbe123484c239b97a005d5ce4a00/03323/image.webp 1x,\n/static/a381cbe123484c239b97a005d5ce4a00/c8e9c/image.webp 1.5x,\n/static/a381cbe123484c239b97a005d5ce4a00/e7f4c/image.webp 2x","width":380,"height":290},"hero":{"src":"/static/a381cbe123484c239b97a005d5ce4a00/a8483/image.jpg","srcSet":"/static/a381cbe123484c239b97a005d5ce4a00/a8483/image.jpg 1x","srcWebp":"/static/a381cbe123484c239b97a005d5ce4a00/7330c/image.webp","srcSetWebp":"/static/a381cbe123484c239b97a005d5ce4a00/7330c/image.webp 1x","width":1600,"height":650}}},{"__typename":"MdxArticleProxy","id":"481c995d-9bfa-5abf-b2a3-7fbb742d7a47","title":"Should You Manage Your Time or Your Energy?","slug":"/should-you-manage-your-time-or-your-energy/","link":null,"excerpt":"Lorem markdownum quisque caeli, aura niger  molitur tangam  licebit, cum quo ut\nharenae pauper, eras…","timeToRead":1,"featured":null,"thumbnailText":null,"date":"April 16, 2019","category":{"__typename":"CategoriesJson","id":"8ae47a39-a905-55fc-8510-03f329960648","name":"Management","slug":"/category/management/","color":"#bee3f8","icon":"/static/f41361d1715191a688f7243a90b28bc7/management.svg"},"author":{"__typename":"AuthorsJson","id":"21f6290e-6a28-594d-87f8-5423803bbb6e","name":"Steve Grant","slug":"/author/steve-grant/","title":"Product Designer","description":"Sed commodo, est quis maximus fermentum, massa ipsum euismod neque, in varius risus tellus quis lacus. Sed ac bibendum odio.","skills":["Public Relation","Market Analyst","Designer"],"social":[{"name":"Instagram","url":"https://instagram.com/instagram"},{"name":"Twitter","url":"https://twitter.com/twitter"},{"name":"Website","url":"https://example.com"}],"thumbnail":{"__typename":"ImageSharp","regular":{"width":150,"height":150,"src":"/static/05d0ac7130e48a9a86ba018fac3dbe2d/97df7/steve-grant.png","srcSet":"/static/05d0ac7130e48a9a86ba018fac3dbe2d/97df7/steve-grant.png 1x,\n/static/05d0ac7130e48a9a86ba018fac3dbe2d/81b80/steve-grant.png 1.5x,\n/static/05d0ac7130e48a9a86ba018fac3dbe2d/bb938/steve-grant.png 2x","srcWebp":"/static/05d0ac7130e48a9a86ba018fac3dbe2d/a3d54/steve-grant.webp","srcSetWebp":"/static/05d0ac7130e48a9a86ba018fac3dbe2d/a3d54/steve-grant.webp 1x,\n/static/05d0ac7130e48a9a86ba018fac3dbe2d/cc134/steve-grant.webp 1.5x,\n/static/05d0ac7130e48a9a86ba018fac3dbe2d/3cb0e/steve-grant.webp 2x"}}},"thumbnail":{"__typename":"ImageSharp","vertical":{"src":"/static/a381cbe123484c239b97a005d5ce4a00/8f7be/image.jpg","srcSet":"/static/a381cbe123484c239b97a005d5ce4a00/8f7be/image.jpg 1x,\n/static/a381cbe123484c239b97a005d5ce4a00/1af80/image.jpg 1.5x,\n/static/a381cbe123484c239b97a005d5ce4a00/1acf6/image.jpg 2x","srcWebp":"/static/a381cbe123484c239b97a005d5ce4a00/03323/image.webp","srcSetWebp":"/static/a381cbe123484c239b97a005d5ce4a00/03323/image.webp 1x,\n/static/a381cbe123484c239b97a005d5ce4a00/c8e9c/image.webp 1.5x,\n/static/a381cbe123484c239b97a005d5ce4a00/e7f4c/image.webp 2x","width":380,"height":290},"hero":{"src":"/static/a381cbe123484c239b97a005d5ce4a00/a8483/image.jpg","srcSet":"/static/a381cbe123484c239b97a005d5ce4a00/a8483/image.jpg 1x","srcWebp":"/static/a381cbe123484c239b97a005d5ce4a00/7330c/image.webp","srcSetWebp":"/static/a381cbe123484c239b97a005d5ce4a00/7330c/image.webp 1x","width":1600,"height":650}}},{"__typename":"MdxArticleProxy","id":"cccf02ae-923a-57d8-b5ad-918a3d5af473","title":"Learning from Digital Disruptors Best Practice Guide","slug":"/learning-from-digital-disruptors-best-practice-guide/","link":null,"excerpt":"Lorem markdownum illic venturi instructa nobis Echidnae,  cum  quid magna\nfatebor. Levat placetque…","timeToRead":1,"featured":null,"thumbnailText":null,"date":"April 16, 2019","category":{"__typename":"CategoriesJson","id":"8ae47a39-a905-55fc-8510-03f329960648","name":"Management","slug":"/category/management/","color":"#bee3f8","icon":"/static/f41361d1715191a688f7243a90b28bc7/management.svg"},"author":{"__typename":"AuthorsJson","id":"21f6290e-6a28-594d-87f8-5423803bbb6e","name":"Steve Grant","slug":"/author/steve-grant/","title":"Product Designer","description":"Sed commodo, est quis maximus fermentum, massa ipsum euismod neque, in varius risus tellus quis lacus. Sed ac bibendum odio.","skills":["Public Relation","Market Analyst","Designer"],"social":[{"name":"Instagram","url":"https://instagram.com/instagram"},{"name":"Twitter","url":"https://twitter.com/twitter"},{"name":"Website","url":"https://example.com"}],"thumbnail":{"__typename":"ImageSharp","regular":{"width":150,"height":150,"src":"/static/05d0ac7130e48a9a86ba018fac3dbe2d/97df7/steve-grant.png","srcSet":"/static/05d0ac7130e48a9a86ba018fac3dbe2d/97df7/steve-grant.png 1x,\n/static/05d0ac7130e48a9a86ba018fac3dbe2d/81b80/steve-grant.png 1.5x,\n/static/05d0ac7130e48a9a86ba018fac3dbe2d/bb938/steve-grant.png 2x","srcWebp":"/static/05d0ac7130e48a9a86ba018fac3dbe2d/a3d54/steve-grant.webp","srcSetWebp":"/static/05d0ac7130e48a9a86ba018fac3dbe2d/a3d54/steve-grant.webp 1x,\n/static/05d0ac7130e48a9a86ba018fac3dbe2d/cc134/steve-grant.webp 1.5x,\n/static/05d0ac7130e48a9a86ba018fac3dbe2d/3cb0e/steve-grant.webp 2x"}}},"thumbnail":{"__typename":"ImageSharp","vertical":{"src":"/static/a381cbe123484c239b97a005d5ce4a00/8f7be/image.jpg","srcSet":"/static/a381cbe123484c239b97a005d5ce4a00/8f7be/image.jpg 1x,\n/static/a381cbe123484c239b97a005d5ce4a00/1af80/image.jpg 1.5x,\n/static/a381cbe123484c239b97a005d5ce4a00/1acf6/image.jpg 2x","srcWebp":"/static/a381cbe123484c239b97a005d5ce4a00/03323/image.webp","srcSetWebp":"/static/a381cbe123484c239b97a005d5ce4a00/03323/image.webp 1x,\n/static/a381cbe123484c239b97a005d5ce4a00/c8e9c/image.webp 1.5x,\n/static/a381cbe123484c239b97a005d5ce4a00/e7f4c/image.webp 2x","width":380,"height":290},"hero":{"src":"/static/a381cbe123484c239b97a005d5ce4a00/a8483/image.jpg","srcSet":"/static/a381cbe123484c239b97a005d5ce4a00/a8483/image.jpg 1x","srcWebp":"/static/a381cbe123484c239b97a005d5ce4a00/7330c/image.webp","srcSetWebp":"/static/a381cbe123484c239b97a005d5ce4a00/7330c/image.webp 1x","width":1600,"height":650}}},{"__typename":"MdxArticleProxy","id":"8acb829c-e39f-54a5-8d37-90da89f0a538","title":"5 Easy Ways to Boost Your Team Performance Immediately","slug":"/5-easy-ways-to-boost-your-team-performance-immediately/","link":null,"excerpt":"Primo in altis pelle alumnae Lorem markdownum obvius in seque opus, est bicorni forte; laeva…","timeToRead":1,"featured":null,"thumbnailText":null,"date":"April 16, 2019","category":{"__typename":"CategoriesJson","id":"8ae47a39-a905-55fc-8510-03f329960648","name":"Management","slug":"/category/management/","color":"#bee3f8","icon":"/static/f41361d1715191a688f7243a90b28bc7/management.svg"},"author":{"__typename":"AuthorsJson","id":"21f6290e-6a28-594d-87f8-5423803bbb6e","name":"Steve Grant","slug":"/author/steve-grant/","title":"Product Designer","description":"Sed commodo, est quis maximus fermentum, massa ipsum euismod neque, in varius risus tellus quis lacus. Sed ac bibendum odio.","skills":["Public Relation","Market Analyst","Designer"],"social":[{"name":"Instagram","url":"https://instagram.com/instagram"},{"name":"Twitter","url":"https://twitter.com/twitter"},{"name":"Website","url":"https://example.com"}],"thumbnail":{"__typename":"ImageSharp","regular":{"width":150,"height":150,"src":"/static/05d0ac7130e48a9a86ba018fac3dbe2d/97df7/steve-grant.png","srcSet":"/static/05d0ac7130e48a9a86ba018fac3dbe2d/97df7/steve-grant.png 1x,\n/static/05d0ac7130e48a9a86ba018fac3dbe2d/81b80/steve-grant.png 1.5x,\n/static/05d0ac7130e48a9a86ba018fac3dbe2d/bb938/steve-grant.png 2x","srcWebp":"/static/05d0ac7130e48a9a86ba018fac3dbe2d/a3d54/steve-grant.webp","srcSetWebp":"/static/05d0ac7130e48a9a86ba018fac3dbe2d/a3d54/steve-grant.webp 1x,\n/static/05d0ac7130e48a9a86ba018fac3dbe2d/cc134/steve-grant.webp 1.5x,\n/static/05d0ac7130e48a9a86ba018fac3dbe2d/3cb0e/steve-grant.webp 2x"}}},"thumbnail":{"__typename":"ImageSharp","vertical":{"src":"/static/a381cbe123484c239b97a005d5ce4a00/8f7be/image.jpg","srcSet":"/static/a381cbe123484c239b97a005d5ce4a00/8f7be/image.jpg 1x,\n/static/a381cbe123484c239b97a005d5ce4a00/1af80/image.jpg 1.5x,\n/static/a381cbe123484c239b97a005d5ce4a00/1acf6/image.jpg 2x","srcWebp":"/static/a381cbe123484c239b97a005d5ce4a00/03323/image.webp","srcSetWebp":"/static/a381cbe123484c239b97a005d5ce4a00/03323/image.webp 1x,\n/static/a381cbe123484c239b97a005d5ce4a00/c8e9c/image.webp 1.5x,\n/static/a381cbe123484c239b97a005d5ce4a00/e7f4c/image.webp 2x","width":380,"height":290},"hero":{"src":"/static/a381cbe123484c239b97a005d5ce4a00/a8483/image.jpg","srcSet":"/static/a381cbe123484c239b97a005d5ce4a00/a8483/image.jpg 1x","srcWebp":"/static/a381cbe123484c239b97a005d5ce4a00/7330c/image.webp","srcSetWebp":"/static/a381cbe123484c239b97a005d5ce4a00/7330c/image.webp 1x","width":1600,"height":650}}},{"__typename":"MdxArticleProxy","id":"f641b532-2fa7-5daf-b4b5-3ce58e9e23d1","title":"University boosts alumni engagement with nostalgic playlist","slug":"/university-boosts-alumni-engagement-with-nostalgic-playlist/","link":null,"excerpt":"Lorem markdownum quisque caeli, aura niger  molitur tangam  licebit, cum quo ut\nharenae pauper, eras…","timeToRead":1,"featured":null,"thumbnailText":null,"date":"April 16, 2019","category":{"__typename":"CategoriesJson","id":"767010c7-c59a-5e5a-bfbb-0fd8f19152a7","name":"Case Studies","slug":"/category/case-studies/","color":"#c6f6d5","icon":"/static/1de85bbd781531b61bf5a25b83d72d32/case-studies.svg"},"author":{"__typename":"AuthorsJson","id":"21f6290e-6a28-594d-87f8-5423803bbb6e","name":"Steve Grant","slug":"/author/steve-grant/","title":"Product Designer","description":"Sed commodo, est quis maximus fermentum, massa ipsum euismod neque, in varius risus tellus quis lacus. Sed ac bibendum odio.","skills":["Public Relation","Market Analyst","Designer"],"social":[{"name":"Instagram","url":"https://instagram.com/instagram"},{"name":"Twitter","url":"https://twitter.com/twitter"},{"name":"Website","url":"https://example.com"}],"thumbnail":{"__typename":"ImageSharp","regular":{"width":150,"height":150,"src":"/static/05d0ac7130e48a9a86ba018fac3dbe2d/97df7/steve-grant.png","srcSet":"/static/05d0ac7130e48a9a86ba018fac3dbe2d/97df7/steve-grant.png 1x,\n/static/05d0ac7130e48a9a86ba018fac3dbe2d/81b80/steve-grant.png 1.5x,\n/static/05d0ac7130e48a9a86ba018fac3dbe2d/bb938/steve-grant.png 2x","srcWebp":"/static/05d0ac7130e48a9a86ba018fac3dbe2d/a3d54/steve-grant.webp","srcSetWebp":"/static/05d0ac7130e48a9a86ba018fac3dbe2d/a3d54/steve-grant.webp 1x,\n/static/05d0ac7130e48a9a86ba018fac3dbe2d/cc134/steve-grant.webp 1.5x,\n/static/05d0ac7130e48a9a86ba018fac3dbe2d/3cb0e/steve-grant.webp 2x"}}},"thumbnail":{"__typename":"ImageSharp","vertical":{"src":"/static/a381cbe123484c239b97a005d5ce4a00/8f7be/image.jpg","srcSet":"/static/a381cbe123484c239b97a005d5ce4a00/8f7be/image.jpg 1x,\n/static/a381cbe123484c239b97a005d5ce4a00/1af80/image.jpg 1.5x,\n/static/a381cbe123484c239b97a005d5ce4a00/1acf6/image.jpg 2x","srcWebp":"/static/a381cbe123484c239b97a005d5ce4a00/03323/image.webp","srcSetWebp":"/static/a381cbe123484c239b97a005d5ce4a00/03323/image.webp 1x,\n/static/a381cbe123484c239b97a005d5ce4a00/c8e9c/image.webp 1.5x,\n/static/a381cbe123484c239b97a005d5ce4a00/e7f4c/image.webp 2x","width":380,"height":290},"hero":{"src":"/static/a381cbe123484c239b97a005d5ce4a00/a8483/image.jpg","srcSet":"/static/a381cbe123484c239b97a005d5ce4a00/a8483/image.jpg 1x","srcWebp":"/static/a381cbe123484c239b97a005d5ce4a00/7330c/image.webp","srcSetWebp":"/static/a381cbe123484c239b97a005d5ce4a00/7330c/image.webp 1x","width":1600,"height":650}}},{"__typename":"MdxArticleProxy","id":"c0d9e352-4979-5796-8db1-a88519c7db09","title":"Broadcaster Saves Hours of Admin with Innovative Digital Audio Solution","slug":"/broadcaster-saves-hours-of-admin-with-innovative-digital-audio-solution/","link":null,"excerpt":"Lorem markdownum illic venturi instructa nobis Echidnae,  cum  quid magna\nfatebor. Levat placetque…","timeToRead":1,"featured":null,"thumbnailText":null,"date":"April 16, 2019","category":{"__typename":"CategoriesJson","id":"767010c7-c59a-5e5a-bfbb-0fd8f19152a7","name":"Case Studies","slug":"/category/case-studies/","color":"#c6f6d5","icon":"/static/1de85bbd781531b61bf5a25b83d72d32/case-studies.svg"},"author":{"__typename":"AuthorsJson","id":"21f6290e-6a28-594d-87f8-5423803bbb6e","name":"Steve Grant","slug":"/author/steve-grant/","title":"Product Designer","description":"Sed commodo, est quis maximus fermentum, massa ipsum euismod neque, in varius risus tellus quis lacus. Sed ac bibendum odio.","skills":["Public Relation","Market Analyst","Designer"],"social":[{"name":"Instagram","url":"https://instagram.com/instagram"},{"name":"Twitter","url":"https://twitter.com/twitter"},{"name":"Website","url":"https://example.com"}],"thumbnail":{"__typename":"ImageSharp","regular":{"width":150,"height":150,"src":"/static/05d0ac7130e48a9a86ba018fac3dbe2d/97df7/steve-grant.png","srcSet":"/static/05d0ac7130e48a9a86ba018fac3dbe2d/97df7/steve-grant.png 1x,\n/static/05d0ac7130e48a9a86ba018fac3dbe2d/81b80/steve-grant.png 1.5x,\n/static/05d0ac7130e48a9a86ba018fac3dbe2d/bb938/steve-grant.png 2x","srcWebp":"/static/05d0ac7130e48a9a86ba018fac3dbe2d/a3d54/steve-grant.webp","srcSetWebp":"/static/05d0ac7130e48a9a86ba018fac3dbe2d/a3d54/steve-grant.webp 1x,\n/static/05d0ac7130e48a9a86ba018fac3dbe2d/cc134/steve-grant.webp 1.5x,\n/static/05d0ac7130e48a9a86ba018fac3dbe2d/3cb0e/steve-grant.webp 2x"}}},"thumbnail":{"__typename":"ImageSharp","vertical":{"src":"/static/a381cbe123484c239b97a005d5ce4a00/8f7be/image.jpg","srcSet":"/static/a381cbe123484c239b97a005d5ce4a00/8f7be/image.jpg 1x,\n/static/a381cbe123484c239b97a005d5ce4a00/1af80/image.jpg 1.5x,\n/static/a381cbe123484c239b97a005d5ce4a00/1acf6/image.jpg 2x","srcWebp":"/static/a381cbe123484c239b97a005d5ce4a00/03323/image.webp","srcSetWebp":"/static/a381cbe123484c239b97a005d5ce4a00/03323/image.webp 1x,\n/static/a381cbe123484c239b97a005d5ce4a00/c8e9c/image.webp 1.5x,\n/static/a381cbe123484c239b97a005d5ce4a00/e7f4c/image.webp 2x","width":380,"height":290},"hero":{"src":"/static/a381cbe123484c239b97a005d5ce4a00/a8483/image.jpg","srcSet":"/static/a381cbe123484c239b97a005d5ce4a00/a8483/image.jpg 1x","srcWebp":"/static/a381cbe123484c239b97a005d5ce4a00/7330c/image.webp","srcSetWebp":"/static/a381cbe123484c239b97a005d5ce4a00/7330c/image.webp 1x","width":1600,"height":650}}}],"pageInfo":{"pageCount":2,"hasPreviousPage":false,"hasNextPage":true,"currentPage":1},"totalCount":10}},"pageContext":{"slug":"/author/steve-grant/","limit":6,"skip":0,"collectionType":"author","paginatePostsPage":false,"basePath":"/","services":{"algolia":false,"mailchimp":false,"disqus":false},"siteUrl":null,"mobileMenu":{"title":"Topics","items":[{"name":"Advertising","slug":"/category/advertising/"},{"name":"Case Studies","slug":"/category/case-studies/"},{"name":"Innovation","slug":"/category/innovation/"},{"name":"Management","slug":"/category/management/"}]},"darkMode":true}}