{"data":{"collectionInfo":{"__typename":"CategoriesJson","id":"8ae47a39-a905-55fc-8510-03f329960648","name":"Management","slug":"/category/management/","description":"Lorem ipsum dolor sit amet, consectetur adipiscing elit, sed do eiusmod tempor incididunt ut labore."},"posts":{"nodes":[{"__typename":"MdxArticleProxy","id":"bb8988f3-2d94-5d9b-83a3-dbb43685b87f","title":"Effective Leadership in the Digital Age","slug":"/effective-leadership-in-the-digital-age/","link":null,"excerpt":"Primo in altis pelle alumnae Lorem markdownum obvius in seque opus, est bicorni forte; laeva…","timeToRead":1,"featured":true,"thumbnailText":null,"date":"April 16, 2019","category":{"__typename":"CategoriesJson","id":"8ae47a39-a905-55fc-8510-03f329960648","name":"Management","slug":"/category/management/","color":"#bee3f8","icon":"/static/f41361d1715191a688f7243a90b28bc7/management.svg"},"author":{"__typename":"AuthorsJson","id":"98704738-2deb-500d-bfc5-8eeb2a88db4a","name":"John Doe","slug":"/author/john-doe/","title":"Web Developer","description":"Sed commodo, est quis maximus fermentum, massa ipsum euismod neque, in varius risus tellus quis lacus. Sed ac bibendum odio.","skills":["ASP.NET","Assembly","JavaScript"],"social":[{"name":"Instagram","url":"https://instagram.com/instagram"},{"name":"Twitter","url":"https://twitter.com/twitter"},{"name":"Website","url":"https://example.com"}],"thumbnail":{"__typename":"ImageSharp","regular":{"width":150,"height":150,"src":"/static/011b3215b6b7e782f02d67aebfa4c319/97df7/john-doe.png","srcSet":"/static/011b3215b6b7e782f02d67aebfa4c319/97df7/john-doe.png 1x,\n/static/011b3215b6b7e782f02d67aebfa4c319/81b80/john-doe.png 1.5x,\n/static/011b3215b6b7e782f02d67aebfa4c319/bb938/john-doe.png 2x","srcWebp":"/static/011b3215b6b7e782f02d67aebfa4c319/a3d54/john-doe.webp","srcSetWebp":"/static/011b3215b6b7e782f02d67aebfa4c319/a3d54/john-doe.webp 1x,\n/static/011b3215b6b7e782f02d67aebfa4c319/cc134/john-doe.webp 1.5x,\n/static/011b3215b6b7e782f02d67aebfa4c319/3cb0e/john-doe.webp 2x"}}},"thumbnail":{"__typename":"ImageSharp","vertical":{"src":"/static/a381cbe123484c239b97a005d5ce4a00/8f7be/image.jpg","srcSet":"/static/a381cbe123484c239b97a005d5ce4a00/8f7be/image.jpg 1x,\n/static/a381cbe123484c239b97a005d5ce4a00/1af80/image.jpg 1.5x,\n/static/a381cbe123484c239b97a005d5ce4a00/1acf6/image.jpg 2x","srcWebp":"/static/a381cbe123484c239b97a005d5ce4a00/03323/image.webp","srcSetWebp":"/static/a381cbe123484c239b97a005d5ce4a00/03323/image.webp 1x,\n/static/a381cbe123484c239b97a005d5ce4a00/c8e9c/image.webp 1.5x,\n/static/a381cbe123484c239b97a005d5ce4a00/e7f4c/image.webp 2x","width":380,"height":290},"hero":{"src":"/static/a381cbe123484c239b97a005d5ce4a00/a8483/image.jpg","srcSet":"/static/a381cbe123484c239b97a005d5ce4a00/a8483/image.jpg 1x","srcWebp":"/static/a381cbe123484c239b97a005d5ce4a00/7330c/image.webp","srcSetWebp":"/static/a381cbe123484c239b97a005d5ce4a00/7330c/image.webp 1x","width":1600,"height":650}}},{"__typename":"MdxArticleProxy","id":"3f02d047-fd52-5a58-9965-42dc872ba054","title":"Top Challenges for Digital Agencies in 2020","slug":"/top-challenges-for-digital-agencies-in-2020/","link":null,"excerpt":"Nec ego a vidit Lorem  markdownum Ilion. Naides ferox vocantem, Iuno artes patrios tamen,\nspicea…","timeToRead":1,"featured":true,"thumbnailText":null,"date":"April 16, 2019","category":{"__typename":"CategoriesJson","id":"8ae47a39-a905-55fc-8510-03f329960648","name":"Management","slug":"/category/management/","color":"#bee3f8","icon":"/static/f41361d1715191a688f7243a90b28bc7/management.svg"},"author":{"__typename":"AuthorsJson","id":"f5a4de2b-4122-541c-bb8a-7378f5374396","name":"Jane Smith","slug":"/author/jane-smith/","title":"Creative Designer","description":"Sed commodo, est quis maximus fermentum, massa ipsum euismod neque, in varius risus tellus quis lacus. Sed ac bibendum odio.","skills":["Advertising","Business","Designer"],"social":[{"name":"Instagram","url":"https://instagram.com/instagram"},{"name":"Twitter","url":"https://twitter.com/twitter"},{"name":"Website","url":"https://example.com"}],"thumbnail":{"__typename":"ImageSharp","regular":{"width":150,"height":150,"src":"/static/ec552a7c1f96030de0601b3b204b16cf/97df7/jane-smith.png","srcSet":"/static/ec552a7c1f96030de0601b3b204b16cf/97df7/jane-smith.png 1x,\n/static/ec552a7c1f96030de0601b3b204b16cf/81b80/jane-smith.png 1.5x,\n/static/ec552a7c1f96030de0601b3b204b16cf/bb938/jane-smith.png 2x","srcWebp":"/static/ec552a7c1f96030de0601b3b204b16cf/a3d54/jane-smith.webp","srcSetWebp":"/static/ec552a7c1f96030de0601b3b204b16cf/a3d54/jane-smith.webp 1x,\n/static/ec552a7c1f96030de0601b3b204b16cf/cc134/jane-smith.webp 1.5x,\n/static/ec552a7c1f96030de0601b3b204b16cf/3cb0e/jane-smith.webp 2x"}}},"thumbnail":{"__typename":"ImageSharp","vertical":{"src":"/static/a381cbe123484c239b97a005d5ce4a00/8f7be/image.jpg","srcSet":"/static/a381cbe123484c239b97a005d5ce4a00/8f7be/image.jpg 1x,\n/static/a381cbe123484c239b97a005d5ce4a00/1af80/image.jpg 1.5x,\n/static/a381cbe123484c239b97a005d5ce4a00/1acf6/image.jpg 2x","srcWebp":"/static/a381cbe123484c239b97a005d5ce4a00/03323/image.webp","srcSetWebp":"/static/a381cbe123484c239b97a005d5ce4a00/03323/image.webp 1x,\n/static/a381cbe123484c239b97a005d5ce4a00/c8e9c/image.webp 1.5x,\n/static/a381cbe123484c239b97a005d5ce4a00/e7f4c/image.webp 2x","width":380,"height":290},"hero":{"src":"/static/a381cbe123484c239b97a005d5ce4a00/a8483/image.jpg","srcSet":"/static/a381cbe123484c239b97a005d5ce4a00/a8483/image.jpg 1x","srcWebp":"/static/a381cbe123484c239b97a005d5ce4a00/7330c/image.webp","srcSetWebp":"/static/a381cbe123484c239b97a005d5ce4a00/7330c/image.webp 1x","width":1600,"height":650}}},{"__typename":"MdxArticleProxy","id":"8acb829c-e39f-54a5-8d37-90da89f0a538","title":"5 Easy Ways to Boost Your Team Performance Immediately","slug":"/5-easy-ways-to-boost-your-team-performance-immediately/","link":null,"excerpt":"Primo in altis pelle alumnae Lorem markdownum obvius in seque opus, est bicorni forte; laeva…","timeToRead":1,"featured":null,"thumbnailText":null,"date":"April 16, 2019","category":{"__typename":"CategoriesJson","id":"8ae47a39-a905-55fc-8510-03f329960648","name":"Management","slug":"/category/management/","color":"#bee3f8","icon":"/static/f41361d1715191a688f7243a90b28bc7/management.svg"},"author":{"__typename":"AuthorsJson","id":"21f6290e-6a28-594d-87f8-5423803bbb6e","name":"Steve Grant","slug":"/author/steve-grant/","title":"Product Designer","description":"Sed commodo, est quis maximus fermentum, massa ipsum euismod neque, in varius risus tellus quis lacus. Sed ac bibendum odio.","skills":["Public Relation","Market Analyst","Designer"],"social":[{"name":"Instagram","url":"https://instagram.com/instagram"},{"name":"Twitter","url":"https://twitter.com/twitter"},{"name":"Website","url":"https://example.com"}],"thumbnail":{"__typename":"ImageSharp","regular":{"width":150,"height":150,"src":"/static/05d0ac7130e48a9a86ba018fac3dbe2d/97df7/steve-grant.png","srcSet":"/static/05d0ac7130e48a9a86ba018fac3dbe2d/97df7/steve-grant.png 1x,\n/static/05d0ac7130e48a9a86ba018fac3dbe2d/81b80/steve-grant.png 1.5x,\n/static/05d0ac7130e48a9a86ba018fac3dbe2d/bb938/steve-grant.png 2x","srcWebp":"/static/05d0ac7130e48a9a86ba018fac3dbe2d/a3d54/steve-grant.webp","srcSetWebp":"/static/05d0ac7130e48a9a86ba018fac3dbe2d/a3d54/steve-grant.webp 1x,\n/static/05d0ac7130e48a9a86ba018fac3dbe2d/cc134/steve-grant.webp 1.5x,\n/static/05d0ac7130e48a9a86ba018fac3dbe2d/3cb0e/steve-grant.webp 2x"}}},"thumbnail":{"__typename":"ImageSharp","vertical":{"src":"/static/a381cbe123484c239b97a005d5ce4a00/8f7be/image.jpg","srcSet":"/static/a381cbe123484c239b97a005d5ce4a00/8f7be/image.jpg 1x,\n/static/a381cbe123484c239b97a005d5ce4a00/1af80/image.jpg 1.5x,\n/static/a381cbe123484c239b97a005d5ce4a00/1acf6/image.jpg 2x","srcWebp":"/static/a381cbe123484c239b97a005d5ce4a00/03323/image.webp","srcSetWebp":"/static/a381cbe123484c239b97a005d5ce4a00/03323/image.webp 1x,\n/static/a381cbe123484c239b97a005d5ce4a00/c8e9c/image.webp 1.5x,\n/static/a381cbe123484c239b97a005d5ce4a00/e7f4c/image.webp 2x","width":380,"height":290},"hero":{"src":"/static/a381cbe123484c239b97a005d5ce4a00/a8483/image.jpg","srcSet":"/static/a381cbe123484c239b97a005d5ce4a00/a8483/image.jpg 1x","srcWebp":"/static/a381cbe123484c239b97a005d5ce4a00/7330c/image.webp","srcSetWebp":"/static/a381cbe123484c239b97a005d5ce4a00/7330c/image.webp 1x","width":1600,"height":650}}}],"pageInfo":{"pageCount":2,"hasPreviousPage":true,"hasNextPage":false,"currentPage":2},"totalCount":9}},"pageContext":{"slug":"/category/management/","limit":6,"skip":6,"collectionType":"category","paginatePostsPage":false,"basePath":"/","services":{"algolia":false,"mailchimp":false,"disqus":false},"siteUrl":null,"mobileMenu":{"title":"Topics","items":[{"name":"Advertising","slug":"/category/advertising/"},{"name":"Case Studies","slug":"/category/case-studies/"},{"name":"Innovation","slug":"/category/innovation/"},{"name":"Management","slug":"/category/management/"}]},"darkMode":true}}