{"data":{"collectionInfo":{"__typename":"CategoriesJson","id":"87a1a8a3-3fcd-5b72-a5d6-a23b5cae16ab","name":"Advertising","slug":"/category/advertising/","description":"Lorem ipsum dolor sit amet, consectetur adipiscing elit, sed do eiusmod tempor incididunt ut labore."},"posts":{"nodes":[{"__typename":"MdxArticleProxy","id":"f3cc598f-604f-5779-801a-df79e2ad4421","title":"Markdown Language Sample Blog","slug":"/markdown-language-sample-blog/","link":null,"excerpt":"Markdown is a lightweight markup language with plain-text-formatting syntax. Its design allows it to…","timeToRead":2,"featured":true,"thumbnailText":null,"date":"May 15, 2021","category":{"__typename":"CategoriesJson","id":"87a1a8a3-3fcd-5b72-a5d6-a23b5cae16ab","name":"Advertising","slug":"/category/advertising/","color":"#e9d8fd","icon":"/static/93c9c75517e1a6e95deaecabf3d1d050/advertising.svg"},"author":{"__typename":"AuthorsJson","id":"f5a4de2b-4122-541c-bb8a-7378f5374396","name":"Jane Smith","slug":"/author/jane-smith/","title":"Creative Designer","description":"Sed commodo, est quis maximus fermentum, massa ipsum euismod neque, in varius risus tellus quis lacus. Sed ac bibendum odio.","skills":["Advertising","Business","Designer"],"social":[{"name":"Instagram","url":"https://instagram.com/instagram"},{"name":"Twitter","url":"https://twitter.com/twitter"},{"name":"Website","url":"https://example.com"}],"thumbnail":{"__typename":"ImageSharp","regular":{"width":150,"height":150,"src":"/static/ec552a7c1f96030de0601b3b204b16cf/97df7/jane-smith.png","srcSet":"/static/ec552a7c1f96030de0601b3b204b16cf/97df7/jane-smith.png 1x,\n/static/ec552a7c1f96030de0601b3b204b16cf/81b80/jane-smith.png 1.5x,\n/static/ec552a7c1f96030de0601b3b204b16cf/bb938/jane-smith.png 2x","srcWebp":"/static/ec552a7c1f96030de0601b3b204b16cf/a3d54/jane-smith.webp","srcSetWebp":"/static/ec552a7c1f96030de0601b3b204b16cf/a3d54/jane-smith.webp 1x,\n/static/ec552a7c1f96030de0601b3b204b16cf/cc134/jane-smith.webp 1.5x,\n/static/ec552a7c1f96030de0601b3b204b16cf/3cb0e/jane-smith.webp 2x"}}},"thumbnail":{"__typename":"ImageSharp","vertical":{"src":"/static/a381cbe123484c239b97a005d5ce4a00/8f7be/image.jpg","srcSet":"/static/a381cbe123484c239b97a005d5ce4a00/8f7be/image.jpg 1x,\n/static/a381cbe123484c239b97a005d5ce4a00/1af80/image.jpg 1.5x,\n/static/a381cbe123484c239b97a005d5ce4a00/1acf6/image.jpg 2x","srcWebp":"/static/a381cbe123484c239b97a005d5ce4a00/03323/image.webp","srcSetWebp":"/static/a381cbe123484c239b97a005d5ce4a00/03323/image.webp 1x,\n/static/a381cbe123484c239b97a005d5ce4a00/c8e9c/image.webp 1.5x,\n/static/a381cbe123484c239b97a005d5ce4a00/e7f4c/image.webp 2x","width":380,"height":290},"hero":{"src":"/static/a381cbe123484c239b97a005d5ce4a00/a8483/image.jpg","srcSet":"/static/a381cbe123484c239b97a005d5ce4a00/a8483/image.jpg 1x","srcWebp":"/static/a381cbe123484c239b97a005d5ce4a00/7330c/image.webp","srcSetWebp":"/static/a381cbe123484c239b97a005d5ce4a00/7330c/image.webp 1x","width":1600,"height":650}}},{"__typename":"MdxArticleProxy","id":"ebcd62c6-f59b-5d76-b6d3-d11e57a256a1","title":"Top Social Media Platforms Overview","slug":"/top-social-media-platforms-overview/","link":null,"excerpt":"Lorem markdownum transitque nondum, Peliaeque at poterat exegit, urbis quo;\ntibi. Cursus mecum adit…","timeToRead":1,"featured":null,"thumbnailText":null,"date":"April 16, 2019","category":{"__typename":"CategoriesJson","id":"87a1a8a3-3fcd-5b72-a5d6-a23b5cae16ab","name":"Advertising","slug":"/category/advertising/","color":"#e9d8fd","icon":"/static/93c9c75517e1a6e95deaecabf3d1d050/advertising.svg"},"author":{"__typename":"AuthorsJson","id":"98704738-2deb-500d-bfc5-8eeb2a88db4a","name":"John Doe","slug":"/author/john-doe/","title":"Web Developer","description":"Sed commodo, est quis maximus fermentum, massa ipsum euismod neque, in varius risus tellus quis lacus. Sed ac bibendum odio.","skills":["ASP.NET","Assembly","JavaScript"],"social":[{"name":"Instagram","url":"https://instagram.com/instagram"},{"name":"Twitter","url":"https://twitter.com/twitter"},{"name":"Website","url":"https://example.com"}],"thumbnail":{"__typename":"ImageSharp","regular":{"width":150,"height":150,"src":"/static/011b3215b6b7e782f02d67aebfa4c319/97df7/john-doe.png","srcSet":"/static/011b3215b6b7e782f02d67aebfa4c319/97df7/john-doe.png 1x,\n/static/011b3215b6b7e782f02d67aebfa4c319/81b80/john-doe.png 1.5x,\n/static/011b3215b6b7e782f02d67aebfa4c319/bb938/john-doe.png 2x","srcWebp":"/static/011b3215b6b7e782f02d67aebfa4c319/a3d54/john-doe.webp","srcSetWebp":"/static/011b3215b6b7e782f02d67aebfa4c319/a3d54/john-doe.webp 1x,\n/static/011b3215b6b7e782f02d67aebfa4c319/cc134/john-doe.webp 1.5x,\n/static/011b3215b6b7e782f02d67aebfa4c319/3cb0e/john-doe.webp 2x"}}},"thumbnail":{"__typename":"ImageSharp","vertical":{"src":"/static/a381cbe123484c239b97a005d5ce4a00/8f7be/image.jpg","srcSet":"/static/a381cbe123484c239b97a005d5ce4a00/8f7be/image.jpg 1x,\n/static/a381cbe123484c239b97a005d5ce4a00/1af80/image.jpg 1.5x,\n/static/a381cbe123484c239b97a005d5ce4a00/1acf6/image.jpg 2x","srcWebp":"/static/a381cbe123484c239b97a005d5ce4a00/03323/image.webp","srcSetWebp":"/static/a381cbe123484c239b97a005d5ce4a00/03323/image.webp 1x,\n/static/a381cbe123484c239b97a005d5ce4a00/c8e9c/image.webp 1.5x,\n/static/a381cbe123484c239b97a005d5ce4a00/e7f4c/image.webp 2x","width":380,"height":290},"hero":{"src":"/static/a381cbe123484c239b97a005d5ce4a00/a8483/image.jpg","srcSet":"/static/a381cbe123484c239b97a005d5ce4a00/a8483/image.jpg 1x","srcWebp":"/static/a381cbe123484c239b97a005d5ce4a00/7330c/image.webp","srcSetWebp":"/static/a381cbe123484c239b97a005d5ce4a00/7330c/image.webp 1x","width":1600,"height":650}}},{"__typename":"MdxArticleProxy","id":"30b1993d-17e9-5f93-87a1-f70f94eb2d6e","title":"What Is Reactive Marketing? And Which Brands Do It Well?","slug":"/what-is-reactive-marketing-and-which-brands-do-it-well/","link":null,"excerpt":"Lorem markdownum illic venturi instructa nobis Echidnae,  cum  quid magna\nfatebor. Levat placetque…","timeToRead":1,"featured":null,"thumbnailText":null,"date":"April 16, 2019","category":{"__typename":"CategoriesJson","id":"87a1a8a3-3fcd-5b72-a5d6-a23b5cae16ab","name":"Advertising","slug":"/category/advertising/","color":"#e9d8fd","icon":"/static/93c9c75517e1a6e95deaecabf3d1d050/advertising.svg"},"author":{"__typename":"AuthorsJson","id":"21f6290e-6a28-594d-87f8-5423803bbb6e","name":"Steve Grant","slug":"/author/steve-grant/","title":"Product Designer","description":"Sed commodo, est quis maximus fermentum, massa ipsum euismod neque, in varius risus tellus quis lacus. Sed ac bibendum odio.","skills":["Public Relation","Market Analyst","Designer"],"social":[{"name":"Instagram","url":"https://instagram.com/instagram"},{"name":"Twitter","url":"https://twitter.com/twitter"},{"name":"Website","url":"https://example.com"}],"thumbnail":{"__typename":"ImageSharp","regular":{"width":150,"height":150,"src":"/static/05d0ac7130e48a9a86ba018fac3dbe2d/97df7/steve-grant.png","srcSet":"/static/05d0ac7130e48a9a86ba018fac3dbe2d/97df7/steve-grant.png 1x,\n/static/05d0ac7130e48a9a86ba018fac3dbe2d/81b80/steve-grant.png 1.5x,\n/static/05d0ac7130e48a9a86ba018fac3dbe2d/bb938/steve-grant.png 2x","srcWebp":"/static/05d0ac7130e48a9a86ba018fac3dbe2d/a3d54/steve-grant.webp","srcSetWebp":"/static/05d0ac7130e48a9a86ba018fac3dbe2d/a3d54/steve-grant.webp 1x,\n/static/05d0ac7130e48a9a86ba018fac3dbe2d/cc134/steve-grant.webp 1.5x,\n/static/05d0ac7130e48a9a86ba018fac3dbe2d/3cb0e/steve-grant.webp 2x"}}},"thumbnail":{"__typename":"ImageSharp","vertical":{"src":"/static/a381cbe123484c239b97a005d5ce4a00/8f7be/image.jpg","srcSet":"/static/a381cbe123484c239b97a005d5ce4a00/8f7be/image.jpg 1x,\n/static/a381cbe123484c239b97a005d5ce4a00/1af80/image.jpg 1.5x,\n/static/a381cbe123484c239b97a005d5ce4a00/1acf6/image.jpg 2x","srcWebp":"/static/a381cbe123484c239b97a005d5ce4a00/03323/image.webp","srcSetWebp":"/static/a381cbe123484c239b97a005d5ce4a00/03323/image.webp 1x,\n/static/a381cbe123484c239b97a005d5ce4a00/c8e9c/image.webp 1.5x,\n/static/a381cbe123484c239b97a005d5ce4a00/e7f4c/image.webp 2x","width":380,"height":290},"hero":{"src":"/static/a381cbe123484c239b97a005d5ce4a00/a8483/image.jpg","srcSet":"/static/a381cbe123484c239b97a005d5ce4a00/a8483/image.jpg 1x","srcWebp":"/static/a381cbe123484c239b97a005d5ce4a00/7330c/image.webp","srcSetWebp":"/static/a381cbe123484c239b97a005d5ce4a00/7330c/image.webp 1x","width":1600,"height":650}}},{"__typename":"MdxArticleProxy","id":"38ab1b09-f232-52cb-b265-4f4299d794e5","title":"The Rise Of Programmatic Outdoor What Advertisers Need To Know","slug":"/the-rise-of-programmatic-outdoor-what-advertisers-need-to-know/","link":null,"excerpt":"Primo in altis pelle alumnae Lorem markdownum obvius in seque opus, est bicorni forte; laeva…","timeToRead":1,"featured":true,"thumbnailText":null,"date":"April 16, 2019","category":{"__typename":"CategoriesJson","id":"87a1a8a3-3fcd-5b72-a5d6-a23b5cae16ab","name":"Advertising","slug":"/category/advertising/","color":"#e9d8fd","icon":"/static/93c9c75517e1a6e95deaecabf3d1d050/advertising.svg"},"author":{"__typename":"AuthorsJson","id":"f5a4de2b-4122-541c-bb8a-7378f5374396","name":"Jane Smith","slug":"/author/jane-smith/","title":"Creative Designer","description":"Sed commodo, est quis maximus fermentum, massa ipsum euismod neque, in varius risus tellus quis lacus. Sed ac bibendum odio.","skills":["Advertising","Business","Designer"],"social":[{"name":"Instagram","url":"https://instagram.com/instagram"},{"name":"Twitter","url":"https://twitter.com/twitter"},{"name":"Website","url":"https://example.com"}],"thumbnail":{"__typename":"ImageSharp","regular":{"width":150,"height":150,"src":"/static/ec552a7c1f96030de0601b3b204b16cf/97df7/jane-smith.png","srcSet":"/static/ec552a7c1f96030de0601b3b204b16cf/97df7/jane-smith.png 1x,\n/static/ec552a7c1f96030de0601b3b204b16cf/81b80/jane-smith.png 1.5x,\n/static/ec552a7c1f96030de0601b3b204b16cf/bb938/jane-smith.png 2x","srcWebp":"/static/ec552a7c1f96030de0601b3b204b16cf/a3d54/jane-smith.webp","srcSetWebp":"/static/ec552a7c1f96030de0601b3b204b16cf/a3d54/jane-smith.webp 1x,\n/static/ec552a7c1f96030de0601b3b204b16cf/cc134/jane-smith.webp 1.5x,\n/static/ec552a7c1f96030de0601b3b204b16cf/3cb0e/jane-smith.webp 2x"}}},"thumbnail":{"__typename":"ImageSharp","vertical":{"src":"/static/a381cbe123484c239b97a005d5ce4a00/8f7be/image.jpg","srcSet":"/static/a381cbe123484c239b97a005d5ce4a00/8f7be/image.jpg 1x,\n/static/a381cbe123484c239b97a005d5ce4a00/1af80/image.jpg 1.5x,\n/static/a381cbe123484c239b97a005d5ce4a00/1acf6/image.jpg 2x","srcWebp":"/static/a381cbe123484c239b97a005d5ce4a00/03323/image.webp","srcSetWebp":"/static/a381cbe123484c239b97a005d5ce4a00/03323/image.webp 1x,\n/static/a381cbe123484c239b97a005d5ce4a00/c8e9c/image.webp 1.5x,\n/static/a381cbe123484c239b97a005d5ce4a00/e7f4c/image.webp 2x","width":380,"height":290},"hero":{"src":"/static/a381cbe123484c239b97a005d5ce4a00/a8483/image.jpg","srcSet":"/static/a381cbe123484c239b97a005d5ce4a00/a8483/image.jpg 1x","srcWebp":"/static/a381cbe123484c239b97a005d5ce4a00/7330c/image.webp","srcSetWebp":"/static/a381cbe123484c239b97a005d5ce4a00/7330c/image.webp 1x","width":1600,"height":650}}},{"__typename":"MdxArticleProxy","id":"ba2ace09-26d3-52ef-8246-33c88818ad9b","title":"The Power Of Native Advertising For Travel Brands","slug":"/the-power-of-native-advertising-for-travel-brands/","link":null,"excerpt":"Lorem markdownum illic venturi instructa nobis Echidnae,  cum  quid magna\nfatebor. Levat placetque…","timeToRead":1,"featured":null,"thumbnailText":null,"date":"April 16, 2019","category":{"__typename":"CategoriesJson","id":"87a1a8a3-3fcd-5b72-a5d6-a23b5cae16ab","name":"Advertising","slug":"/category/advertising/","color":"#e9d8fd","icon":"/static/93c9c75517e1a6e95deaecabf3d1d050/advertising.svg"},"author":{"__typename":"AuthorsJson","id":"21f6290e-6a28-594d-87f8-5423803bbb6e","name":"Steve Grant","slug":"/author/steve-grant/","title":"Product Designer","description":"Sed commodo, est quis maximus fermentum, massa ipsum euismod neque, in varius risus tellus quis lacus. Sed ac bibendum odio.","skills":["Public Relation","Market Analyst","Designer"],"social":[{"name":"Instagram","url":"https://instagram.com/instagram"},{"name":"Twitter","url":"https://twitter.com/twitter"},{"name":"Website","url":"https://example.com"}],"thumbnail":{"__typename":"ImageSharp","regular":{"width":150,"height":150,"src":"/static/05d0ac7130e48a9a86ba018fac3dbe2d/97df7/steve-grant.png","srcSet":"/static/05d0ac7130e48a9a86ba018fac3dbe2d/97df7/steve-grant.png 1x,\n/static/05d0ac7130e48a9a86ba018fac3dbe2d/81b80/steve-grant.png 1.5x,\n/static/05d0ac7130e48a9a86ba018fac3dbe2d/bb938/steve-grant.png 2x","srcWebp":"/static/05d0ac7130e48a9a86ba018fac3dbe2d/a3d54/steve-grant.webp","srcSetWebp":"/static/05d0ac7130e48a9a86ba018fac3dbe2d/a3d54/steve-grant.webp 1x,\n/static/05d0ac7130e48a9a86ba018fac3dbe2d/cc134/steve-grant.webp 1.5x,\n/static/05d0ac7130e48a9a86ba018fac3dbe2d/3cb0e/steve-grant.webp 2x"}}},"thumbnail":{"__typename":"ImageSharp","vertical":{"src":"/static/a381cbe123484c239b97a005d5ce4a00/8f7be/image.jpg","srcSet":"/static/a381cbe123484c239b97a005d5ce4a00/8f7be/image.jpg 1x,\n/static/a381cbe123484c239b97a005d5ce4a00/1af80/image.jpg 1.5x,\n/static/a381cbe123484c239b97a005d5ce4a00/1acf6/image.jpg 2x","srcWebp":"/static/a381cbe123484c239b97a005d5ce4a00/03323/image.webp","srcSetWebp":"/static/a381cbe123484c239b97a005d5ce4a00/03323/image.webp 1x,\n/static/a381cbe123484c239b97a005d5ce4a00/c8e9c/image.webp 1.5x,\n/static/a381cbe123484c239b97a005d5ce4a00/e7f4c/image.webp 2x","width":380,"height":290},"hero":{"src":"/static/a381cbe123484c239b97a005d5ce4a00/a8483/image.jpg","srcSet":"/static/a381cbe123484c239b97a005d5ce4a00/a8483/image.jpg 1x","srcWebp":"/static/a381cbe123484c239b97a005d5ce4a00/7330c/image.webp","srcSetWebp":"/static/a381cbe123484c239b97a005d5ce4a00/7330c/image.webp 1x","width":1600,"height":650}}},{"__typename":"MdxArticleProxy","id":"14bc8735-3b13-51e9-bee1-d7cfad165759","title":"The Consultancy Vs. Agency Debate It’s All About Effectiveness","slug":"/the-consultancy-vs-agency-debate-its-all-about-effectiveness/","link":null,"excerpt":"Lorem markdownum illic venturi instructa nobis Echidnae,  cum  quid magna\nfatebor. Levat placetque…","timeToRead":1,"featured":null,"thumbnailText":null,"date":"April 16, 2019","category":{"__typename":"CategoriesJson","id":"87a1a8a3-3fcd-5b72-a5d6-a23b5cae16ab","name":"Advertising","slug":"/category/advertising/","color":"#e9d8fd","icon":"/static/93c9c75517e1a6e95deaecabf3d1d050/advertising.svg"},"author":{"__typename":"AuthorsJson","id":"21f6290e-6a28-594d-87f8-5423803bbb6e","name":"Steve Grant","slug":"/author/steve-grant/","title":"Product Designer","description":"Sed commodo, est quis maximus fermentum, massa ipsum euismod neque, in varius risus tellus quis lacus. Sed ac bibendum odio.","skills":["Public Relation","Market Analyst","Designer"],"social":[{"name":"Instagram","url":"https://instagram.com/instagram"},{"name":"Twitter","url":"https://twitter.com/twitter"},{"name":"Website","url":"https://example.com"}],"thumbnail":{"__typename":"ImageSharp","regular":{"width":150,"height":150,"src":"/static/05d0ac7130e48a9a86ba018fac3dbe2d/97df7/steve-grant.png","srcSet":"/static/05d0ac7130e48a9a86ba018fac3dbe2d/97df7/steve-grant.png 1x,\n/static/05d0ac7130e48a9a86ba018fac3dbe2d/81b80/steve-grant.png 1.5x,\n/static/05d0ac7130e48a9a86ba018fac3dbe2d/bb938/steve-grant.png 2x","srcWebp":"/static/05d0ac7130e48a9a86ba018fac3dbe2d/a3d54/steve-grant.webp","srcSetWebp":"/static/05d0ac7130e48a9a86ba018fac3dbe2d/a3d54/steve-grant.webp 1x,\n/static/05d0ac7130e48a9a86ba018fac3dbe2d/cc134/steve-grant.webp 1.5x,\n/static/05d0ac7130e48a9a86ba018fac3dbe2d/3cb0e/steve-grant.webp 2x"}}},"thumbnail":{"__typename":"ImageSharp","vertical":{"src":"/static/a381cbe123484c239b97a005d5ce4a00/8f7be/image.jpg","srcSet":"/static/a381cbe123484c239b97a005d5ce4a00/8f7be/image.jpg 1x,\n/static/a381cbe123484c239b97a005d5ce4a00/1af80/image.jpg 1.5x,\n/static/a381cbe123484c239b97a005d5ce4a00/1acf6/image.jpg 2x","srcWebp":"/static/a381cbe123484c239b97a005d5ce4a00/03323/image.webp","srcSetWebp":"/static/a381cbe123484c239b97a005d5ce4a00/03323/image.webp 1x,\n/static/a381cbe123484c239b97a005d5ce4a00/c8e9c/image.webp 1.5x,\n/static/a381cbe123484c239b97a005d5ce4a00/e7f4c/image.webp 2x","width":380,"height":290},"hero":{"src":"/static/a381cbe123484c239b97a005d5ce4a00/a8483/image.jpg","srcSet":"/static/a381cbe123484c239b97a005d5ce4a00/a8483/image.jpg 1x","srcWebp":"/static/a381cbe123484c239b97a005d5ce4a00/7330c/image.webp","srcSetWebp":"/static/a381cbe123484c239b97a005d5ce4a00/7330c/image.webp 1x","width":1600,"height":650}}}],"pageInfo":{"pageCount":2,"hasPreviousPage":false,"hasNextPage":true,"currentPage":1},"totalCount":11}},"pageContext":{"slug":"/category/advertising/","limit":6,"skip":0,"collectionType":"category","paginatePostsPage":false,"basePath":"/","services":{"algolia":false,"mailchimp":false,"disqus":false},"siteUrl":null,"mobileMenu":{"title":"Topics","items":[{"name":"Advertising","slug":"/category/advertising/"},{"name":"Case Studies","slug":"/category/case-studies/"},{"name":"Innovation","slug":"/category/innovation/"},{"name":"Management","slug":"/category/management/"}]},"darkMode":true}}