{"componentChunkName":"component---packages-blog-core-src-templates-collection-author-js","path":"/author/john-doe/","result":{"data":{"collectionInfo":{"__typename":"AuthorsJson","id":"98704738-2deb-500d-bfc5-8eeb2a88db4a","name":"John Doe","slug":"/author/john-doe/","title":"Web Developer","description":"Sed commodo, est quis maximus fermentum, massa ipsum euismod neque, in varius risus tellus quis lacus. Sed ac bibendum odio.","skills":["ASP.NET","Assembly","JavaScript"],"social":[{"name":"Instagram","url":"https://instagram.com/instagram"},{"name":"Twitter","url":"https://twitter.com/twitter"},{"name":"Website","url":"https://example.com"}],"thumbnail":{"__typename":"ImageSharp","regular":{"width":150,"height":150,"src":"/static/011b3215b6b7e782f02d67aebfa4c319/97df7/john-doe.png","srcSet":"/static/011b3215b6b7e782f02d67aebfa4c319/97df7/john-doe.png 1x,\n/static/011b3215b6b7e782f02d67aebfa4c319/81b80/john-doe.png 1.5x,\n/static/011b3215b6b7e782f02d67aebfa4c319/bb938/john-doe.png 2x","srcWebp":"/static/011b3215b6b7e782f02d67aebfa4c319/a3d54/john-doe.webp","srcSetWebp":"/static/011b3215b6b7e782f02d67aebfa4c319/a3d54/john-doe.webp 1x,\n/static/011b3215b6b7e782f02d67aebfa4c319/cc134/john-doe.webp 1.5x,\n/static/011b3215b6b7e782f02d67aebfa4c319/3cb0e/john-doe.webp 2x"}}},"posts":{"nodes":[{"__typename":"MdxArticleProxy","id":"15cd4c3b-23d5-507c-a73e-c65f3f5596a2","title":"How to test whether your innovation strategy is socially responsible","slug":"/how-to-test-whether-your-innovation-strategy-is-socially-responsible/","link":null,"excerpt":"Primo in altis pelle alumnae Lorem markdownum obvius in seque opus, est bicorni forte; laeva…","timeToRead":1,"featured":null,"thumbnailText":null,"date":"April 02, 2020","category":{"__typename":"CategoriesJson","id":"30eded32-f31a-5769-9680-9d0ca1b67155","name":"Innovation","slug":"/category/innovation/","color":"#fefcbf","icon":"/static/35c6c4f7d744541f08be2bbd2770c8db/innovation.svg"},"author":{"__typename":"AuthorsJson","id":"98704738-2deb-500d-bfc5-8eeb2a88db4a","name":"John Doe","slug":"/author/john-doe/","title":"Web Developer","description":"Sed commodo, est quis maximus fermentum, massa ipsum euismod neque, in varius risus tellus quis lacus. Sed ac bibendum odio.","skills":["ASP.NET","Assembly","JavaScript"],"social":[{"name":"Instagram","url":"https://instagram.com/instagram"},{"name":"Twitter","url":"https://twitter.com/twitter"},{"name":"Website","url":"https://example.com"}],"thumbnail":{"__typename":"ImageSharp","regular":{"width":150,"height":150,"src":"/static/011b3215b6b7e782f02d67aebfa4c319/97df7/john-doe.png","srcSet":"/static/011b3215b6b7e782f02d67aebfa4c319/97df7/john-doe.png 1x,\n/static/011b3215b6b7e782f02d67aebfa4c319/81b80/john-doe.png 1.5x,\n/static/011b3215b6b7e782f02d67aebfa4c319/bb938/john-doe.png 2x","srcWebp":"/static/011b3215b6b7e782f02d67aebfa4c319/a3d54/john-doe.webp","srcSetWebp":"/static/011b3215b6b7e782f02d67aebfa4c319/a3d54/john-doe.webp 1x,\n/static/011b3215b6b7e782f02d67aebfa4c319/cc134/john-doe.webp 1.5x,\n/static/011b3215b6b7e782f02d67aebfa4c319/3cb0e/john-doe.webp 2x"}}},"thumbnail":{"__typename":"ImageSharp","vertical":{"src":"/static/a381cbe123484c239b97a005d5ce4a00/8f7be/image.jpg","srcSet":"/static/a381cbe123484c239b97a005d5ce4a00/8f7be/image.jpg 1x,\n/static/a381cbe123484c239b97a005d5ce4a00/1af80/image.jpg 1.5x,\n/static/a381cbe123484c239b97a005d5ce4a00/1acf6/image.jpg 2x","srcWebp":"/static/a381cbe123484c239b97a005d5ce4a00/03323/image.webp","srcSetWebp":"/static/a381cbe123484c239b97a005d5ce4a00/03323/image.webp 1x,\n/static/a381cbe123484c239b97a005d5ce4a00/c8e9c/image.webp 1.5x,\n/static/a381cbe123484c239b97a005d5ce4a00/e7f4c/image.webp 2x","width":380,"height":290},"hero":{"src":"/static/a381cbe123484c239b97a005d5ce4a00/a8483/image.jpg","srcSet":"/static/a381cbe123484c239b97a005d5ce4a00/a8483/image.jpg 1x","srcWebp":"/static/a381cbe123484c239b97a005d5ce4a00/7330c/image.webp","srcSetWebp":"/static/a381cbe123484c239b97a005d5ce4a00/7330c/image.webp 1x","width":1600,"height":650}}},{"__typename":"MdxArticleProxy","id":"865a9519-8802-5d69-87cb-4757ecf95aea","title":"How to maintain a self-steering culture while scaling up","slug":"/how-to-maintain-a-self-steering-culture-while-scaling-up/","link":null,"excerpt":"Primo in altis pelle alumnae Lorem markdownum obvius in seque opus, est bicorni forte; laeva…","timeToRead":1,"featured":null,"thumbnailText":null,"date":"April 02, 2020","category":{"__typename":"CategoriesJson","id":"30eded32-f31a-5769-9680-9d0ca1b67155","name":"Innovation","slug":"/category/innovation/","color":"#fefcbf","icon":"/static/35c6c4f7d744541f08be2bbd2770c8db/innovation.svg"},"author":{"__typename":"AuthorsJson","id":"98704738-2deb-500d-bfc5-8eeb2a88db4a","name":"John Doe","slug":"/author/john-doe/","title":"Web Developer","description":"Sed commodo, est quis maximus fermentum, massa ipsum euismod neque, in varius risus tellus quis lacus. Sed ac bibendum odio.","skills":["ASP.NET","Assembly","JavaScript"],"social":[{"name":"Instagram","url":"https://instagram.com/instagram"},{"name":"Twitter","url":"https://twitter.com/twitter"},{"name":"Website","url":"https://example.com"}],"thumbnail":{"__typename":"ImageSharp","regular":{"width":150,"height":150,"src":"/static/011b3215b6b7e782f02d67aebfa4c319/97df7/john-doe.png","srcSet":"/static/011b3215b6b7e782f02d67aebfa4c319/97df7/john-doe.png 1x,\n/static/011b3215b6b7e782f02d67aebfa4c319/81b80/john-doe.png 1.5x,\n/static/011b3215b6b7e782f02d67aebfa4c319/bb938/john-doe.png 2x","srcWebp":"/static/011b3215b6b7e782f02d67aebfa4c319/a3d54/john-doe.webp","srcSetWebp":"/static/011b3215b6b7e782f02d67aebfa4c319/a3d54/john-doe.webp 1x,\n/static/011b3215b6b7e782f02d67aebfa4c319/cc134/john-doe.webp 1.5x,\n/static/011b3215b6b7e782f02d67aebfa4c319/3cb0e/john-doe.webp 2x"}}},"thumbnail":{"__typename":"ImageSharp","vertical":{"src":"/static/a381cbe123484c239b97a005d5ce4a00/8f7be/image.jpg","srcSet":"/static/a381cbe123484c239b97a005d5ce4a00/8f7be/image.jpg 1x,\n/static/a381cbe123484c239b97a005d5ce4a00/1af80/image.jpg 1.5x,\n/static/a381cbe123484c239b97a005d5ce4a00/1acf6/image.jpg 2x","srcWebp":"/static/a381cbe123484c239b97a005d5ce4a00/03323/image.webp","srcSetWebp":"/static/a381cbe123484c239b97a005d5ce4a00/03323/image.webp 1x,\n/static/a381cbe123484c239b97a005d5ce4a00/c8e9c/image.webp 1.5x,\n/static/a381cbe123484c239b97a005d5ce4a00/e7f4c/image.webp 2x","width":380,"height":290},"hero":{"src":"/static/a381cbe123484c239b97a005d5ce4a00/a8483/image.jpg","srcSet":"/static/a381cbe123484c239b97a005d5ce4a00/a8483/image.jpg 1x","srcWebp":"/static/a381cbe123484c239b97a005d5ce4a00/7330c/image.webp","srcSetWebp":"/static/a381cbe123484c239b97a005d5ce4a00/7330c/image.webp 1x","width":1600,"height":650}}},{"__typename":"MdxArticleProxy","id":"eb388315-7bb4-5ba8-9b8c-eeaa9dcd2a0e","title":"How to assess your company’s level of innovation","slug":"/how-to-assess-your-companys-level-of-innovation/","link":null,"excerpt":"Primo in altis pelle alumnae Lorem markdownum obvius in seque opus, est bicorni forte; laeva…","timeToRead":1,"featured":null,"thumbnailText":null,"date":"April 02, 2020","category":{"__typename":"CategoriesJson","id":"30eded32-f31a-5769-9680-9d0ca1b67155","name":"Innovation","slug":"/category/innovation/","color":"#fefcbf","icon":"/static/35c6c4f7d744541f08be2bbd2770c8db/innovation.svg"},"author":{"__typename":"AuthorsJson","id":"98704738-2deb-500d-bfc5-8eeb2a88db4a","name":"John Doe","slug":"/author/john-doe/","title":"Web Developer","description":"Sed commodo, est quis maximus fermentum, massa ipsum euismod neque, in varius risus tellus quis lacus. Sed ac bibendum odio.","skills":["ASP.NET","Assembly","JavaScript"],"social":[{"name":"Instagram","url":"https://instagram.com/instagram"},{"name":"Twitter","url":"https://twitter.com/twitter"},{"name":"Website","url":"https://example.com"}],"thumbnail":{"__typename":"ImageSharp","regular":{"width":150,"height":150,"src":"/static/011b3215b6b7e782f02d67aebfa4c319/97df7/john-doe.png","srcSet":"/static/011b3215b6b7e782f02d67aebfa4c319/97df7/john-doe.png 1x,\n/static/011b3215b6b7e782f02d67aebfa4c319/81b80/john-doe.png 1.5x,\n/static/011b3215b6b7e782f02d67aebfa4c319/bb938/john-doe.png 2x","srcWebp":"/static/011b3215b6b7e782f02d67aebfa4c319/a3d54/john-doe.webp","srcSetWebp":"/static/011b3215b6b7e782f02d67aebfa4c319/a3d54/john-doe.webp 1x,\n/static/011b3215b6b7e782f02d67aebfa4c319/cc134/john-doe.webp 1.5x,\n/static/011b3215b6b7e782f02d67aebfa4c319/3cb0e/john-doe.webp 2x"}}},"thumbnail":{"__typename":"ImageSharp","vertical":{"src":"/static/a381cbe123484c239b97a005d5ce4a00/8f7be/image.jpg","srcSet":"/static/a381cbe123484c239b97a005d5ce4a00/8f7be/image.jpg 1x,\n/static/a381cbe123484c239b97a005d5ce4a00/1af80/image.jpg 1.5x,\n/static/a381cbe123484c239b97a005d5ce4a00/1acf6/image.jpg 2x","srcWebp":"/static/a381cbe123484c239b97a005d5ce4a00/03323/image.webp","srcSetWebp":"/static/a381cbe123484c239b97a005d5ce4a00/03323/image.webp 1x,\n/static/a381cbe123484c239b97a005d5ce4a00/c8e9c/image.webp 1.5x,\n/static/a381cbe123484c239b97a005d5ce4a00/e7f4c/image.webp 2x","width":380,"height":290},"hero":{"src":"/static/a381cbe123484c239b97a005d5ce4a00/a8483/image.jpg","srcSet":"/static/a381cbe123484c239b97a005d5ce4a00/a8483/image.jpg 1x","srcWebp":"/static/a381cbe123484c239b97a005d5ce4a00/7330c/image.webp","srcSetWebp":"/static/a381cbe123484c239b97a005d5ce4a00/7330c/image.webp 1x","width":1600,"height":650}}},{"__typename":"MdxArticleProxy","id":"e57e1947-78f4-511e-87a9-39661a4eef55","title":"Future-proof your organization with biomimicry thinking","slug":"/future-proof-your-organization-with-biomimicry-thinking/","link":null,"excerpt":"Primo in altis pelle alumnae Lorem markdownum obvius in seque opus, est bicorni forte; laeva…","timeToRead":1,"featured":null,"thumbnailText":null,"date":"April 02, 2020","category":{"__typename":"CategoriesJson","id":"30eded32-f31a-5769-9680-9d0ca1b67155","name":"Innovation","slug":"/category/innovation/","color":"#fefcbf","icon":"/static/35c6c4f7d744541f08be2bbd2770c8db/innovation.svg"},"author":{"__typename":"AuthorsJson","id":"98704738-2deb-500d-bfc5-8eeb2a88db4a","name":"John Doe","slug":"/author/john-doe/","title":"Web Developer","description":"Sed commodo, est quis maximus fermentum, massa ipsum euismod neque, in varius risus tellus quis lacus. Sed ac bibendum odio.","skills":["ASP.NET","Assembly","JavaScript"],"social":[{"name":"Instagram","url":"https://instagram.com/instagram"},{"name":"Twitter","url":"https://twitter.com/twitter"},{"name":"Website","url":"https://example.com"}],"thumbnail":{"__typename":"ImageSharp","regular":{"width":150,"height":150,"src":"/static/011b3215b6b7e782f02d67aebfa4c319/97df7/john-doe.png","srcSet":"/static/011b3215b6b7e782f02d67aebfa4c319/97df7/john-doe.png 1x,\n/static/011b3215b6b7e782f02d67aebfa4c319/81b80/john-doe.png 1.5x,\n/static/011b3215b6b7e782f02d67aebfa4c319/bb938/john-doe.png 2x","srcWebp":"/static/011b3215b6b7e782f02d67aebfa4c319/a3d54/john-doe.webp","srcSetWebp":"/static/011b3215b6b7e782f02d67aebfa4c319/a3d54/john-doe.webp 1x,\n/static/011b3215b6b7e782f02d67aebfa4c319/cc134/john-doe.webp 1.5x,\n/static/011b3215b6b7e782f02d67aebfa4c319/3cb0e/john-doe.webp 2x"}}},"thumbnail":{"__typename":"ImageSharp","vertical":{"src":"/static/a381cbe123484c239b97a005d5ce4a00/8f7be/image.jpg","srcSet":"/static/a381cbe123484c239b97a005d5ce4a00/8f7be/image.jpg 1x,\n/static/a381cbe123484c239b97a005d5ce4a00/1af80/image.jpg 1.5x,\n/static/a381cbe123484c239b97a005d5ce4a00/1acf6/image.jpg 2x","srcWebp":"/static/a381cbe123484c239b97a005d5ce4a00/03323/image.webp","srcSetWebp":"/static/a381cbe123484c239b97a005d5ce4a00/03323/image.webp 1x,\n/static/a381cbe123484c239b97a005d5ce4a00/c8e9c/image.webp 1.5x,\n/static/a381cbe123484c239b97a005d5ce4a00/e7f4c/image.webp 2x","width":380,"height":290},"hero":{"src":"/static/a381cbe123484c239b97a005d5ce4a00/a8483/image.jpg","srcSet":"/static/a381cbe123484c239b97a005d5ce4a00/a8483/image.jpg 1x","srcWebp":"/static/a381cbe123484c239b97a005d5ce4a00/7330c/image.webp","srcSetWebp":"/static/a381cbe123484c239b97a005d5ce4a00/7330c/image.webp 1x","width":1600,"height":650}}},{"__typename":"MdxArticleProxy","id":"8d3b5bd6-919f-5922-a0af-6386b375f2ea","title":"Create an international team of innovation catalysts in 5 steps","slug":"/create-an-international-team-of-innovation-catalysts-in-5-steps/","link":null,"excerpt":"Primo in altis pelle alumnae Lorem markdownum obvius in seque opus, est bicorni forte; laeva…","timeToRead":1,"featured":true,"thumbnailText":null,"date":"April 02, 2020","category":{"__typename":"CategoriesJson","id":"30eded32-f31a-5769-9680-9d0ca1b67155","name":"Innovation","slug":"/category/innovation/","color":"#fefcbf","icon":"/static/35c6c4f7d744541f08be2bbd2770c8db/innovation.svg"},"author":{"__typename":"AuthorsJson","id":"98704738-2deb-500d-bfc5-8eeb2a88db4a","name":"John Doe","slug":"/author/john-doe/","title":"Web Developer","description":"Sed commodo, est quis maximus fermentum, massa ipsum euismod neque, in varius risus tellus quis lacus. Sed ac bibendum odio.","skills":["ASP.NET","Assembly","JavaScript"],"social":[{"name":"Instagram","url":"https://instagram.com/instagram"},{"name":"Twitter","url":"https://twitter.com/twitter"},{"name":"Website","url":"https://example.com"}],"thumbnail":{"__typename":"ImageSharp","regular":{"width":150,"height":150,"src":"/static/011b3215b6b7e782f02d67aebfa4c319/97df7/john-doe.png","srcSet":"/static/011b3215b6b7e782f02d67aebfa4c319/97df7/john-doe.png 1x,\n/static/011b3215b6b7e782f02d67aebfa4c319/81b80/john-doe.png 1.5x,\n/static/011b3215b6b7e782f02d67aebfa4c319/bb938/john-doe.png 2x","srcWebp":"/static/011b3215b6b7e782f02d67aebfa4c319/a3d54/john-doe.webp","srcSetWebp":"/static/011b3215b6b7e782f02d67aebfa4c319/a3d54/john-doe.webp 1x,\n/static/011b3215b6b7e782f02d67aebfa4c319/cc134/john-doe.webp 1.5x,\n/static/011b3215b6b7e782f02d67aebfa4c319/3cb0e/john-doe.webp 2x"}}},"thumbnail":{"__typename":"ImageSharp","vertical":{"src":"/static/a381cbe123484c239b97a005d5ce4a00/8f7be/image.jpg","srcSet":"/static/a381cbe123484c239b97a005d5ce4a00/8f7be/image.jpg 1x,\n/static/a381cbe123484c239b97a005d5ce4a00/1af80/image.jpg 1.5x,\n/static/a381cbe123484c239b97a005d5ce4a00/1acf6/image.jpg 2x","srcWebp":"/static/a381cbe123484c239b97a005d5ce4a00/03323/image.webp","srcSetWebp":"/static/a381cbe123484c239b97a005d5ce4a00/03323/image.webp 1x,\n/static/a381cbe123484c239b97a005d5ce4a00/c8e9c/image.webp 1.5x,\n/static/a381cbe123484c239b97a005d5ce4a00/e7f4c/image.webp 2x","width":380,"height":290},"hero":{"src":"/static/a381cbe123484c239b97a005d5ce4a00/a8483/image.jpg","srcSet":"/static/a381cbe123484c239b97a005d5ce4a00/a8483/image.jpg 1x","srcWebp":"/static/a381cbe123484c239b97a005d5ce4a00/7330c/image.webp","srcSetWebp":"/static/a381cbe123484c239b97a005d5ce4a00/7330c/image.webp 1x","width":1600,"height":650}}},{"__typename":"MdxArticleProxy","id":"ba20cacc-7d1e-5298-8685-cfadc95a3a23","title":"Can a designer sustainably transform the world?","slug":"/can-a-designer-sustainably-transform-the-world/","link":null,"excerpt":"Primo in altis pelle alumnae Lorem markdownum obvius in seque opus, est bicorni forte; laeva…","timeToRead":1,"featured":null,"thumbnailText":null,"date":"April 02, 2020","category":{"__typename":"CategoriesJson","id":"30eded32-f31a-5769-9680-9d0ca1b67155","name":"Innovation","slug":"/category/innovation/","color":"#fefcbf","icon":"/static/35c6c4f7d744541f08be2bbd2770c8db/innovation.svg"},"author":{"__typename":"AuthorsJson","id":"98704738-2deb-500d-bfc5-8eeb2a88db4a","name":"John Doe","slug":"/author/john-doe/","title":"Web Developer","description":"Sed commodo, est quis maximus fermentum, massa ipsum euismod neque, in varius risus tellus quis lacus. Sed ac bibendum odio.","skills":["ASP.NET","Assembly","JavaScript"],"social":[{"name":"Instagram","url":"https://instagram.com/instagram"},{"name":"Twitter","url":"https://twitter.com/twitter"},{"name":"Website","url":"https://example.com"}],"thumbnail":{"__typename":"ImageSharp","regular":{"width":150,"height":150,"src":"/static/011b3215b6b7e782f02d67aebfa4c319/97df7/john-doe.png","srcSet":"/static/011b3215b6b7e782f02d67aebfa4c319/97df7/john-doe.png 1x,\n/static/011b3215b6b7e782f02d67aebfa4c319/81b80/john-doe.png 1.5x,\n/static/011b3215b6b7e782f02d67aebfa4c319/bb938/john-doe.png 2x","srcWebp":"/static/011b3215b6b7e782f02d67aebfa4c319/a3d54/john-doe.webp","srcSetWebp":"/static/011b3215b6b7e782f02d67aebfa4c319/a3d54/john-doe.webp 1x,\n/static/011b3215b6b7e782f02d67aebfa4c319/cc134/john-doe.webp 1.5x,\n/static/011b3215b6b7e782f02d67aebfa4c319/3cb0e/john-doe.webp 2x"}}},"thumbnail":{"__typename":"ImageSharp","vertical":{"src":"/static/a381cbe123484c239b97a005d5ce4a00/8f7be/image.jpg","srcSet":"/static/a381cbe123484c239b97a005d5ce4a00/8f7be/image.jpg 1x,\n/static/a381cbe123484c239b97a005d5ce4a00/1af80/image.jpg 1.5x,\n/static/a381cbe123484c239b97a005d5ce4a00/1acf6/image.jpg 2x","srcWebp":"/static/a381cbe123484c239b97a005d5ce4a00/03323/image.webp","srcSetWebp":"/static/a381cbe123484c239b97a005d5ce4a00/03323/image.webp 1x,\n/static/a381cbe123484c239b97a005d5ce4a00/c8e9c/image.webp 1.5x,\n/static/a381cbe123484c239b97a005d5ce4a00/e7f4c/image.webp 2x","width":380,"height":290},"hero":{"src":"/static/a381cbe123484c239b97a005d5ce4a00/a8483/image.jpg","srcSet":"/static/a381cbe123484c239b97a005d5ce4a00/a8483/image.jpg 1x","srcWebp":"/static/a381cbe123484c239b97a005d5ce4a00/7330c/image.webp","srcSetWebp":"/static/a381cbe123484c239b97a005d5ce4a00/7330c/image.webp 1x","width":1600,"height":650}}}],"pageInfo":{"pageCount":4,"hasPreviousPage":false,"hasNextPage":true,"currentPage":1},"totalCount":23}},"pageContext":{"slug":"/author/john-doe/","limit":6,"skip":0,"collectionType":"author","paginatePostsPage":false,"basePath":"/","services":{"algolia":false,"mailchimp":false,"disqus":false},"siteUrl":null,"mobileMenu":{"title":"Topics","items":[{"name":"Advertising","slug":"/category/advertising/"},{"name":"Innovation","slug":"/category/innovation/"},{"name":"Management","slug":"/category/management/"},{"name":"Case Studies","slug":"/category/case-studies/"}]},"darkMode":true}},"staticQueryHashes":["1992822086","92822325"]}